reti_logiche/esami/verilog/2021-01-08/waveform.vcd
$date
	Thu May 15 14:49:31 2025
$end
$version
	Icarus Verilog
$end
$timescale
	1s
$end
$scope module testbench $end
$var wire 1 ! soc $end
$var wire 8 " min [7:0] $end
$var wire 1 # dav_ $end
$var wire 1 $ clock $end
$var reg 1 % eoc1 $end
$var reg 1 & eoc2 $end
$var reg 1 ' eoc3 $end
$var reg 8 ( expected_min [7:0] $end
$var reg 5 ) i [4:0] $end
$var reg 5 * j [4:0] $end
$var reg 1 + reset_ $end
$var reg 1 , rfd $end
$var reg 8 - v1 [7:0] $end
$var reg 8 . v2 [7:0] $end
$var reg 8 / v3 [7:0] $end
$var reg 8 0 x1 [7:0] $end
$var reg 8 1 x2 [7:0] $end
$var reg 8 2 x3 [7:0] $end
$scope module clk $end
$var wire 1 $ clock $end
$var parameter 32 3 HALF_PERIOD $end
$var reg 1 4 CLOCK $end
$upscope $end
$scope module dut $end
$var wire 1 $ clock $end
$var wire 1 # dav_ $end
$var wire 1 % eoc1 $end
$var wire 1 & eoc2 $end
$var wire 1 ' eoc3 $end
$var wire 8 5 min [7:0] $end
$var wire 1 + reset_ $end
$var wire 1 , rfd $end
$var wire 1 ! soc $end
$var wire 8 6 x1 [7:0] $end
$var wire 8 7 x2 [7:0] $end
$var wire 8 8 x3 [7:0] $end
$var wire 8 9 minimo [7:0] $end
$var parameter 32 : S0 $end
$var parameter 32 ; S1 $end
$var parameter 32 < S2 $end
$var parameter 32 = S3 $end
$var reg 1 > DAV_ $end
$var reg 8 ? MIN [7:0] $end
$var reg 1 @ SOC $end
$var reg 2 A STAR [1:0] $end
$scope module m3 $end
$var wire 8 B x1 [7:0] $end
$var wire 8 C x2 [7:0] $end
$var wire 8 D x3 [7:0] $end
$var wire 8 E minimo [7:0] $end
$var wire 8 F min_x1_x2 [7:0] $end
$var wire 1 G b_out2 $end
$var wire 1 H b_out1 $end
$scope module s1 $end
$var wire 1 I b_in $end
$var wire 8 J x [7:0] $end
$var wire 8 K y [7:0] $end
$var wire 8 L d [7:0] $end
$var wire 1 H b_out $end
$var parameter 32 M N $end
$upscope $end
$scope module s2 $end
$var wire 1 N b_in $end
$var wire 8 O x [7:0] $end
$var wire 8 P y [7:0] $end
$var wire 8 Q d [7:0] $end
$var wire 1 G b_out $end
$var parameter 32 R N $end
$upscope $end
$upscope $end
$upscope $end
$scope fork f $end
$upscope $end
$upscope $end
$enddefinitions $end
$comment Show the parameter values. $end
$dumpall
b1000 R
b1000 M
b11 =
b10 <
b1 ;
b0 :
b101 3
$end
#0
$dumpvars
bx Q
bx P
bx O
0N
bx L
bx K
bx J
0I
xH
xG
bx F
bx E
bx D
bx C
bx B
b0 A
0@
bx ?
1>
bx 9
bx 8
bx 7
bx 6
bx 5
04
bx 2
bx 1
bx 0
bx /
bx .
bx -
1,
0+
bx *
bx )
bx (
1'
1&
1%
0$
1#
bx "
0!
$end
#5
1!
1@
1$
14
b1010 (
b0 *
b11110 /
b10100 .
b1010 -
b0 )
1+
#10
0$
04
#15
1$
14
0%
#20
0$
04
#25
1$
14
0&
#30
0$
04
#35
b1 A
1$
14
0'
#40
0$
04
#45
0!
0@
1$
14
#50
0$
04
#55
1$
14
b1010 0
b1010 6
b1010 B
b1010 J
#60
0$
04
#65
1$
14
b0xxxx0 F
b0xxxx0 O
1%
b10100 1
b10100 7
b10100 C
b10100 K
#66
b1010 F
b1010 O
b11110110 L
1H
#70
0$
04
#75
b0x1x10 "
b0x1x10 5
b0x1x10 ?
1$
14
b0x1x10 9
b0x1x10 E
b11110 2
b11110 8
b11110 D
b11110 P
#76
b1010 9
b1010 E
b11101100 Q
1G
#80
0$
04
#85
b1010 "
b1010 5
b1010 ?
1$
14
1&
#90
0$
04
#95
1$
14
#100
0$
04
#105
b10 A
1$
14
1'
#110
0$
04
#115
0#
0>
1$
14
#120
0$
04
#125
b11 A
1$
14
0,
#130
0$
04
#135
1#
1>
1$
14
#140
0$
04
#145
b0 A
1$
14
b1011 (
b1 *
b1011 /
b100001 .
b10110 -
b1 )
1,
#150
0$
04
#155
1!
1@
1$
14
#160
0$
04
#165
1$
14
0%
#170
0$
04
#175
1$
14
0&
#180
0$
04
#185
b1 A
1$
14
0'
#190
0$
04
#195
0!
0@
1$
14
#200
0$
04
#205
b10110 "
b10110 5
b10110 ?
1$
14
b10110 9
b10110 E
b10110 F
b10110 O
b10110 0
b10110 6
b10110 B
b10110 J
#206
b10100 9
b10100 E
b10100 F
b10100 O
b11111000 Q
b10 L
0H
#207
b11110110 Q
#210
0$
04
#215
b100001 "
b100001 5
b100001 ?
1$
14
b100001 9
b100001 E
b100001 F
b100001 O
1%
b100001 1
b100001 7
b100001 C
b100001 K
#216
b11110 9
b11110 E
b10110 F
b10110 O
b11 Q
0G
b11110101 L
1H
#217
b10110 9
b10110 E
b11111000 Q
1G
#220
0$
04
#225
b10110 "
b10110 5
b10110 ?
1$
14
b1011 2
b1011 8
b1011 D
b1011 P
#226
b1011 9
b1011 E
b1011 Q
0G
#230
0$
04
#235
b1011 "
b1011 5
b1011 ?
1$
14
1&
#240
0$
04
#245
1$
14
#250
0$
04
#255
b10 A
1$
14
1'
#260
0$
04
#265
0#
0>
1$
14
#270
0$
04
#275
b11 A
1$
14
0,
#280
0$
04
#285
1#
1>
1$
14
#290
0$
04
#295
b0 A
1$
14
b1100 (
b10 *
b11000 /
b1100 .
b100100 -
b10 )
1,
#300
0$
04
#305
1!
1@
1$
14
#310
0$
04
#315
1$
14
0%
#320
0$
04
#325
1$
14
0&
#330
0$
04
#335
b1 A
1$
14
0'
#340
0$
04
#345
0!
0@
1$
14
#350
0$
04
#355
1$
14
b100100 F
b100100 O
b100100 0
b100100 6
b100100 B
b100100 J
#356
b100001 F
b100001 O
b11001 Q
b11 L
0H
#357
b10110 Q
#360
0$
04
#365
1$
14
b1100 F
b1100 O
1%
b1100 1
b1100 7
b1100 C
b1100 K
#366
b1 Q
b11000 L
#370
0$
04
#375
b11000 "
b11000 5
b11000 ?
1$
14
b11000 9
b11000 E
b11000 2
b11000 8
b11000 D
b11000 P
#376
b1100 9
b1100 E
b11110100 Q
1G
#380
0$
04
#385
b1100 "
b1100 5
b1100 ?
1$
14
1&
#390
0$
04
#395
1$
14
#400
0$
04
#405
b10 A
1$
14
1'
#410
0$
04
#415
0#
0>
1$
14
#420
0$
04
#425
b11 A
1$
14
0,
#430
0$
04
#435
1#
1>
1$
14
#440
0$
04
#445
b0 A
1$
14
b1101 (
b11 *
b100111 /
b11010 .
b1101 -
b11 )
1,
#450
0$
04
#455
1!
1@
1$
14
#460
0$
04
#465
1$
14
0%
#470
0$
04
#475
1$
14
0&
#480
0$
04
#485
b1 A
1$
14
0'
#490
0$
04
#495
0!
0@
1$
14
#500
0$
04
#505
1$
14
b1101 0
b1101 6
b1101 B
b1101 J
#506
b1 L
#510
0$
04
#515
b11010 "
b11010 5
b11010 ?
1$
14
b11010 9
b11010 E
b11010 F
b11010 O
1%
b11010 1
b11010 7
b11010 C
b11010 K
#516
b11000 9
b11000 E
b1101 F
b1101 O
b10 Q
0G
b11110011 L
1H
#517
b1101 9
b1101 E
b11110101 Q
1G
#520
0$
04
#525
b1101 "
b1101 5
b1101 ?
1$
14
b100111 2
b100111 8
b100111 D
b100111 P
#526
b11100110 Q
#530
0$
04
#535
1$
14
1&
#540
0$
04
#545
1$
14
#550
0$
04
#555
b10 A
1$
14
1'
#560
0$
04
#565
0#
0>
1$
14
#570
0$
04
#575
b11 A
1$
14
0,
#580
0$
04
#585
1#
1>
1$
14
#590
0$
04
#595
b0 A
1$
14
b1110 (
b100 *
b1110 /
b101010 .
b11100 -
b100 )
1,
#600
0$
04
#605
1!
1@
1$
14
#610
0$
04
#615
1$
14
0%
#620
0$
04
#625
1$
14
0&
#630
0$
04
#635
b1 A
1$
14
0'
#640
0$
04
#645
0!
0@
1$
14
#650
0$
04
#655
b11100 "
b11100 5
b11100 ?
1$
14
b11100 9
b11100 E
b11100 F
b11100 O
b11100 0
b11100 6
b11100 B
b11100 J
#656
b11010 9
b11010 E
b11010 F
b11010 O
b11110101 Q
b10 L
0H
#657
b11110011 Q
#660
0$
04
#665
b101010 "
b101010 5
b101010 ?
1$
14
b101010 9
b101010 E
b101010 F
b101010 O
1%
b101010 1
b101010 7
b101010 C
b101010 K
#666
b100111 9
b100111 E
b11100 F
b11100 O
b11 Q
0G
b11110010 L
1H
#667
b11100 9
b11100 E
b11110101 Q
1G
#670
0$
04
#675
b11100 "
b11100 5
b11100 ?
1$
14
b1110 2
b1110 8
b1110 D
b1110 P
#676
b1110 9
b1110 E
b1110 Q
0G
#680
0$
04
#685
b1110 "
b1110 5
b1110 ?
1$
14
1&
#690
0$
04
#695
1$
14
#700
0$
04
#705
b10 A
1$
14
1'
#710
0$
04
#715
0#
0>
1$
14
#720
0$
04
#725
b11 A
1$
14
0,
#730
0$
04
#735
1#
1>
1$
14
#740
0$
04
#745
b0 A
1$
14
b1111 (
b101 *
b11110 /
b1111 .
b101101 -
b101 )
1,
#750
0$
04
#755
1!
1@
1$
14
#760
0$
04
#765
1$
14
0%
#770
0$
04
#775
1$
14
0&
#780
0$
04
#785
b1 A
1$
14
0'
#790
0$
04
#795
0!
0@
1$
14
#800
0$
04
#805
1$
14
b101101 F
b101101 O
b101101 0
b101101 6
b101101 B
b101101 J
#806
b101010 F
b101010 O
b11111 Q
b11 L
0H
#807
b11100 Q
#810
0$
04
#815
1$
14
b1111 F
b1111 O
1%
b1111 1
b1111 7
b1111 C
b1111 K
#816
b1 Q
b11110 L
#820
0$
04
#825
b11110 "
b11110 5
b11110 ?
1$
14
b11110 9
b11110 E
b11110 2
b11110 8
b11110 D
b11110 P
#826
b1111 9
b1111 E
b11110001 Q
1G
#830
0$
04
#835
b1111 "
b1111 5
b1111 ?
1$
14
1&
#840
0$
04
#845
1$
14
#850
0$
04
#855
b10 A
1$
14
1'
#860
0$
04
#865
0#
0>
1$
14
#870
0$
04
#875
b11 A
1$
14
0,
#880
0$
04
#885
1#
1>
1$
14
#890
0$
04
#895
b0 A
1$
14
b10000 (
b110 *
b110000 /
b100000 .
b10000 -
b110 )
1,
#900
0$
04
#905
1!
1@
1$
14
#910
0$
04
#915
1$
14
0%
#920
0$
04
#925
1$
14
0&
#930
0$
04
#935
b1 A
1$
14
0'
#940
0$
04
#945
0!
0@
1$
14
#950
0$
04
#955
1$
14
b10000 0
b10000 6
b10000 B
b10000 J
#956
b1 L
#960
0$
04
#965
b100000 "
b100000 5
b100000 ?
1$
14
b100000 9
b100000 E
b100000 F
b100000 O
1%
b100000 1
b100000 7
b100000 C
b100000 K
#966
b11110 9
b11110 E
b10000 F
b10000 O
b10 Q
0G
b11110000 L
1H
#967
b10000 9
b10000 E
b11110010 Q
1G
#970
0$
04
#975
b10000 "
b10000 5
b10000 ?
1$
14
b110000 2
b110000 8
b110000 D
b110000 P
#976
b11100000 Q
#980
0$
04
#985
1$
14
1&
#990
0$
04
#995
1$
14
#1000
0$
04
#1005
b10 A
1$
14
1'
#1010
0$
04
#1015
0#
0>
1$
14
#1020
0$
04
#1025
b11 A
1$
14
0,
#1030
0$
04
#1035
1#
1>
1$
14
#1040
0$
04
#1045
b0 A
1$
14
b10001 (
b111 *
b10001 /
b110011 .
b100010 -
b111 )
1,
#1050
0$
04
#1055
1!
1@
1$
14
#1060
0$
04
#1065
1$
14
0%
#1070
0$
04
#1075
1$
14
0&
#1080
0$
04
#1085
b1 A
1$
14
0'
#1090
0$
04
#1095
0!
0@
1$
14
#1100
0$
04
#1105
b100010 "
b100010 5
b100010 ?
1$
14
b100010 9
b100010 E
b100010 F
b100010 O
b100010 0
b100010 6
b100010 B
b100010 J
#1106
b100000 9
b100000 E
b100000 F
b100000 O
b11110010 Q
b10 L
0H
#1107
b11110000 Q
#1110
0$
04
#1115
b110011 "
b110011 5
b110011 ?
1$
14
b110011 9
b110011 E
b110011 F
b110011 O
1%
b110011 1
b110011 7
b110011 C
b110011 K
#1116
b110000 9
b110000 E
b100010 F
b100010 O
b11 Q
0G
b11101111 L
1H
#1117
b100010 9
b100010 E
b11110010 Q
1G
#1120
0$
04
#1125
b100010 "
b100010 5
b100010 ?
1$
14
b10001 2
b10001 8
b10001 D
b10001 P
#1126
b10001 9
b10001 E
b10001 Q
0G
#1130
0$
04
#1135
b10001 "
b10001 5
b10001 ?
1$
14
1&
#1140
0$
04
#1145
1$
14
#1150
0$
04
#1155
b10 A
1$
14
1'
#1160
0$
04
#1165
0#
0>
1$
14
#1170
0$
04
#1175
b11 A
1$
14
0,
#1180
0$
04
#1185
1#
1>
1$
14
#1190
0$
04
#1195
b0 A
1$
14
b10010 (
b1000 *
b100100 /
b10010 .
b110110 -
b1000 )
1,
#1200
0$
04
#1205
1!
1@
1$
14
#1210
0$
04
#1215
1$
14
0%
#1220
0$
04
#1225
1$
14
0&
#1230
0$
04
#1235
b1 A
1$
14
0'
#1240
0$
04
#1245
0!
0@
1$
14
#1250
0$
04
#1255
1$
14
b110110 F
b110110 O
b110110 0
b110110 6
b110110 B
b110110 J
#1256
b110011 F
b110011 O
b100101 Q
b11 L
0H
#1257
b100010 Q
#1260
0$
04
#1265
1$
14
b10010 F
b10010 O
1%
b10010 1
b10010 7
b10010 C
b10010 K
#1266
b1 Q
b100100 L
#1270
0$
04
#1275
b100100 "
b100100 5
b100100 ?
1$
14
b100100 9
b100100 E
b100100 2
b100100 8
b100100 D
b100100 P
#1276
b10010 9
b10010 E
b11101110 Q
1G
#1280
0$
04
#1285
b10010 "
b10010 5
b10010 ?
1$
14
1&
#1290
0$
04
#1295
1$
14
#1300
0$
04
#1305
b10 A
1$
14
1'
#1310
0$
04
#1315
0#
0>
1$
14
#1320
0$
04
#1325
b11 A
1$
14
0,
#1330
0$
04
#1335
1#
1>
1$
14
#1340
0$
04
#1345
b0 A
1$
14
b10011 (
b1001 *
b111001 /
b100110 .
b10011 -
b1001 )
1,
#1350
0$
04
#1355
1!
1@
1$
14
#1360
0$
04
#1365
1$
14
0%
#1370
0$
04
#1375
1$
14
0&
#1380
0$
04
#1385
b1 A
1$
14
0'
#1390
0$
04
#1395
0!
0@
1$
14
#1400
0$
04
#1405
1$
14
b10011 0
b10011 6
b10011 B
b10011 J
#1406
b1 L
#1410
0$
04
#1415
b100110 "
b100110 5
b100110 ?
1$
14
b100110 9
b100110 E
b100110 F
b100110 O
1%
b100110 1
b100110 7
b100110 C
b100110 K
#1416
b100100 9
b100100 E
b10011 F
b10011 O
b10 Q
0G
b11101101 L
1H
#1417
b10011 9
b10011 E
b11101111 Q
1G
#1420
0$
04
#1425
b10011 "
b10011 5
b10011 ?
1$
14
b111001 2
b111001 8
b111001 D
b111001 P
#1426
b11011010 Q
#1430
0$
04
#1435
1$
14
1&
#1440
0$
04
#1445
1$
14
#1450
0$
04
#1455
b10 A
1$
14
1'
#1460
0$
04
#1465
0#
0>
1$
14
#1470
0$
04
#1475
b11 A
1$
14
0,
#1480
0$
04
#1485
1#
1>
1$
14
#1490
0$
04
#1495
b0 A
1$
14
b10100 (
b1010 *
b10100 /
b111100 .
b101000 -
b1010 )
1,
#1500
0$
04
#1505
1!
1@
1$
14
#1510
0$
04
#1515
1$
14
0%
#1520
0$
04
#1525
1$
14
0&
#1530
0$
04
#1535
b1 A
1$
14
0'
#1540
0$
04
#1545
0!
0@
1$
14
#1550
0$
04
#1555
b101000 "
b101000 5
b101000 ?
1$
14
b101000 9
b101000 E
b101000 F
b101000 O
b101000 0
b101000 6
b101000 B
b101000 J
#1556
b100110 9
b100110 E
b100110 F
b100110 O
b11101111 Q
b10 L
0H
#1557
b11101101 Q
#1560
0$
04
#1565
b111100 "
b111100 5
b111100 ?
1$
14
b111100 9
b111100 E
b111100 F
b111100 O
1%
b111100 1
b111100 7
b111100 C
b111100 K
#1566
b111001 9
b111001 E
b101000 F
b101000 O
b11 Q
0G
b11101100 L
1H
#1567
b101000 9
b101000 E
b11101111 Q
1G
#1570
0$
04
#1575
b101000 "
b101000 5
b101000 ?
1$
14
b10100 2
b10100 8
b10100 D
b10100 P
#1576
b10100 9
b10100 E
b10100 Q
0G
#1580
0$
04
#1585
b10100 "
b10100 5
b10100 ?
1$
14
1&
#1590
0$
04
#1595
1$
14
#1600
0$
04
#1605
b10 A
1$
14
1'
#1610
0$
04
#1615
0#
0>
1$
14
#1620
0$
04
#1625
b11 A
1$
14
0,
#1630
0$
04
#1635
1#
1>
1$
14
#1640
0$
04
#1645
b0 A
1$
14
b10101 (
b1011 *
b101010 /
b10101 .
b111111 -
b1011 )
1,
#1650
0$
04
#1655
1!
1@
1$
14
#1660
0$
04
#1665
1$
14
0%
#1670
0$
04
#1675
1$
14
0&
#1680
0$
04
#1685
b1 A
1$
14
0'
#1690
0$
04
#1695
0!
0@
1$
14
#1700
0$
04
#1705
1$
14
b111111 F
b111111 O
b111111 0
b111111 6
b111111 B
b111111 J
#1706
b111100 F
b111100 O
b101011 Q
b11 L
0H
#1707
b101000 Q
#1710
0$
04
#1715
1$
14
b10101 F
b10101 O
1%
b10101 1
b10101 7
b10101 C
b10101 K
#1716
b1 Q
b101010 L
#1720
0$
04
#1725
b101010 "
b101010 5
b101010 ?
1$
14
b101010 9
b101010 E
b101010 2
b101010 8
b101010 D
b101010 P
#1726
b10101 9
b10101 E
b11101011 Q
1G
#1730
0$
04
#1735
b10101 "
b10101 5
b10101 ?
1$
14
1&
#1740
0$
04
#1745
1$
14
#1750
0$
04
#1755
b10 A
1$
14
1'
#1760
0$
04
#1765
0#
0>
1$
14
#1770
0$
04
#1775
b11 A
1$
14
0,
#1780
0$
04
#1785
1#
1>
1$
14
#1790
0$
04
#1795
b0 A
1$
14
b10110 (
b1100 *
b1000010 /
b101100 .
b10110 -
b1100 )
1,
#1800
0$
04
#1805
1!
1@
1$
14
#1810
0$
04
#1815
1$
14
0%
#1820
0$
04
#1825
1$
14
0&
#1830
0$
04
#1835
b1 A
1$
14
0'
#1840
0$
04
#1845
0!
0@
1$
14
#1850
0$
04
#1855
1$
14
b10110 0
b10110 6
b10110 B
b10110 J
#1856
b1 L
#1860
0$
04
#1865
b101100 "
b101100 5
b101100 ?
1$
14
b101100 9
b101100 E
b101100 F
b101100 O
1%
b101100 1
b101100 7
b101100 C
b101100 K
#1866
b101010 9
b101010 E
b10110 F
b10110 O
b10 Q
0G
b11101010 L
1H
#1867
b10110 9
b10110 E
b11101100 Q
1G
#1870
0$
04
#1875
b10110 "
b10110 5
b10110 ?
1$
14
b1000010 2
b1000010 8
b1000010 D
b1000010 P
#1876
b11010100 Q
#1880
0$
04
#1885
1$
14
1&
#1890
0$
04
#1895
1$
14
#1900
0$
04
#1905
b10 A
1$
14
1'
#1910
0$
04
#1915
0#
0>
1$
14
#1920
0$
04
#1925
b11 A
1$
14
0,
#1930
0$
04
#1935
1#
1>
1$
14
#1940
0$
04
#1945
b0 A
1$
14
b10111 (
b1101 *
b10111 /
b1000101 .
b101110 -
b1101 )
1,
#1950
0$
04
#1955
1!
1@
1$
14
#1960
0$
04
#1965
1$
14
0%
#1970
0$
04
#1975
1$
14
0&
#1980
0$
04
#1985
b1 A
1$
14
0'
#1990
0$
04
#1995
0!
0@
1$
14
#2000
0$
04
#2005
b101110 "
b101110 5
b101110 ?
1$
14
b101110 9
b101110 E
b101110 F
b101110 O
b101110 0
b101110 6
b101110 B
b101110 J
#2006
b101100 9
b101100 E
b101100 F
b101100 O
b11101100 Q
b10 L
0H
#2007
b11101010 Q
#2010
0$
04
#2015
b1000101 "
b1000101 5
b1000101 ?
1$
14
b1000101 9
b1000101 E
b1000101 F
b1000101 O
1%
b1000101 1
b1000101 7
b1000101 C
b1000101 K
#2016
b1000010 9
b1000010 E
b101110 F
b101110 O
b11 Q
0G
b11101001 L
1H
#2017
b101110 9
b101110 E
b11101100 Q
1G
#2020
0$
04
#2025
b101110 "
b101110 5
b101110 ?
1$
14
b10111 2
b10111 8
b10111 D
b10111 P
#2026
b10111 9
b10111 E
b10111 Q
0G
#2030
0$
04
#2035
b10111 "
b10111 5
b10111 ?
1$
14
1&
#2040
0$
04
#2045
1$
14
#2050
0$
04
#2055
b10 A
1$
14
1'
#2060
0$
04
#2065
0#
0>
1$
14
#2070
0$
04
#2075
b11 A
1$
14
0,
#2080
0$
04
#2085
1#
1>
1$
14
#2090
0$
04
#2095
b0 A
1$
14
b11000 (
b1110 *
b110000 /
b11000 .
b1001000 -
b1110 )
1,
#2100
0$
04
#2105
1!
1@
1$
14
#2110
0$
04
#2115
1$
14
0%
#2120
0$
04
#2125
1$
14
0&
#2130
0$
04
#2135
b1 A
1$
14
0'
#2140
0$
04
#2145
0!
0@
1$
14
#2150
0$
04
#2155
1$
14
b1001000 F
b1001000 O
b1001000 0
b1001000 6
b1001000 B
b1001000 J
#2156
b1000101 F
b1000101 O
b110001 Q
b11 L
0H
#2157
b101110 Q
#2160
0$
04
#2165
1$
14
b11000 F
b11000 O
1%
b11000 1
b11000 7
b11000 C
b11000 K
#2166
b1 Q
b110000 L
#2170
0$
04
#2175
b110000 "
b110000 5
b110000 ?
1$
14
b110000 9
b110000 E
b110000 2
b110000 8
b110000 D
b110000 P
#2176
b11000 9
b11000 E
b11101000 Q
1G
#2180
0$
04
#2185
b11000 "
b11000 5
b11000 ?
1$
14
1&
#2190
0$
04
#2195
1$
14
#2200
0$
04
#2205
b10 A
1$
14
1'
#2210
0$
04
#2215
0#
0>
1$
14
#2220
0$
04
#2225
b11 A
1$
14
0,
#2230
0$
04
#2235
1#
1>
1$
14
#2240
0$
04
#2245
b0 A
1$
14
b11001 (
b1111 *
b1001011 /
b110010 .
b11001 -
b1111 )
1,
#2250
0$
04
#2255
1!
1@
1$
14
#2260
0$
04
#2265
1$
14
0%
#2270
0$
04
#2275
1$
14
0&
#2280
0$
04
#2285
b1 A
1$
14
0'
#2290
0$
04
#2295
0!
0@
1$
14
#2300
0$
04
#2305
1$
14
b11001 0
b11001 6
b11001 B
b11001 J
#2306
b1 L
#2310
0$
04
#2315
b110010 "
b110010 5
b110010 ?
1$
14
b110010 9
b110010 E
b110010 F
b110010 O
1%
b110010 1
b110010 7
b110010 C
b110010 K
#2316
b110000 9
b110000 E
b11001 F
b11001 O
b10 Q
0G
b11100111 L
1H
#2317
b11001 9
b11001 E
b11101001 Q
1G
#2320
0$
04
#2325
b11001 "
b11001 5
b11001 ?
1$
14
b1001011 2
b1001011 8
b1001011 D
b1001011 P
#2326
b11001110 Q
#2330
0$
04
#2335
1$
14
1&
#2340
0$
04
#2345
1$
14
#2350
0$
04
#2355
b10 A
1$
14
1'
#2360
0$
04
#2365
0#
0>
1$
14
#2370
0$
04
#2375
b11 A
1$
14
0,
#2380
0$
04
#2385
1#
1>
1$
14
#2390
0$
04
#2395
b0 A
1$
14
b10000 )
1,
