reti_logiche/esami/verilog/2024-06-25/waveform.vcd
$date
	Tue Jun  3 19:06:42 2025
$end
$version
	Icarus Verilog
$end
$timescale
	1s
$end
$scope module CR_to_MS $end
$var wire 8 ! x [7:0] $end
$var wire 1 " sgn_x $end
$var wire 8 # abs_x [7:0] $end
$var parameter 32 $ N $end
$upscope $end
$scope module MS_to_CR $end
$var wire 8 % abs_x [7:0] $end
$var wire 1 & ow $end
$var wire 1 ' sgn_x $end
$var wire 8 ( x [7:0] $end
$var parameter 32 ) N $end
$upscope $end
$scope module comp_nat $end
$var wire 2 * a [1:0] $end
$var wire 2 + b [1:0] $end
$var wire 1 , min $end
$var wire 1 - eq $end
$var parameter 32 . N $end
$upscope $end
$scope module diff $end
$var wire 1 / b_in $end
$var wire 8 0 x [7:0] $end
$var wire 8 1 y [7:0] $end
$var wire 1 2 ow $end
$var wire 8 3 d [7:0] $end
$var wire 1 4 b_out $end
$var parameter 32 5 N $end
$upscope $end
$scope module imul $end
$var wire 1 6 sgn_m $end
$var wire 8 7 x [7:0] $end
$var wire 8 8 y [7:0] $end
$var wire 1 9 sgn_y $end
$var wire 1 : sgn_x $end
$var wire 16 ; m [15:0] $end
$var wire 8 < abs_y [7:0] $end
$var wire 8 = abs_x [7:0] $end
$var wire 16 > abs_m [15:0] $end
$var parameter 32 ? M $end
$var parameter 32 @ N $end
$upscope $end
$scope module mul_add_nat $end
$var wire 2 A c [1:0] $end
$var wire 2 B x [1:0] $end
$var wire 2 C y [1:0] $end
$var wire 4 D m [3:0] $end
$var parameter 32 E M $end
$var parameter 32 F N $end
$upscope $end
$scope module testbench $end
$var wire 8 G y [7:0] $end
$var wire 8 H x [7:0] $end
$var wire 1 I soc_vy $end
$var wire 1 J soc_vx $end
$var wire 1 K eoc_p $end
$var wire 1 L clock $end
$var reg 1 M eoc_vx $end
$var reg 1 N eoc_vy $end
$var reg 1 O error $end
$var reg 1 P reset_ $end
$var reg 1 Q soc_p $end
$var reg 4 R vx [3:0] $end
$var reg 4 S vy [3:0] $end
$scope function get_testcase $end
$upscope $end
$scope module clk $end
$var wire 1 L clock $end
$var parameter 32 T HALF_PERIOD $end
$var reg 1 U CLOCK $end
$upscope $end
$scope module dut $end
$var wire 1 L clock $end
$var wire 1 M eoc_vx $end
$var wire 1 N eoc_vy $end
$var wire 1 P reset_ $end
$var wire 1 Q soc_p $end
$var wire 4 V vx [3:0] $end
$var wire 4 W vy [3:0] $end
$var wire 8 X y [7:0] $end
$var wire 8 Y x [7:0] $end
$var wire 1 I soc_vy $end
$var wire 1 J soc_vx $end
$var wire 1 K eoc_p $end
$var wire 1 Z c2 $end
$var wire 1 [ c1 $end
$var wire 1 \ c0 $end
$var wire 1 ] b4 $end
$var wire 1 ^ b3 $end
$var wire 1 _ b2 $end
$var wire 1 ` b1 $end
$var wire 1 a b0 $end
$scope module pc $end
$var wire 1 L clock $end
$var wire 1 P reset_ $end
$var wire 1 Z c2 $end
$var wire 1 [ c1 $end
$var wire 1 \ c0 $end
$var wire 1 ] b4 $end
$var wire 1 ^ b3 $end
$var wire 1 _ b2 $end
$var wire 1 ` b1 $end
$var wire 1 a b0 $end
$var parameter 32 b S0 $end
$var parameter 32 c S1 $end
$var parameter 32 d S2 $end
$var parameter 32 e S3 $end
$var parameter 32 f S4 $end
$var reg 3 g STAR [2:0] $end
$upscope $end
$scope module po $end
$var wire 1 a b0 $end
$var wire 1 ` b1 $end
$var wire 1 _ b2 $end
$var wire 1 ^ b3 $end
$var wire 1 ] b4 $end
$var wire 1 \ c0 $end
$var wire 1 [ c1 $end
$var wire 1 Z c2 $end
$var wire 1 L clock $end
$var wire 1 K eoc_p $end
$var wire 1 M eoc_vx $end
$var wire 1 N eoc_vy $end
$var wire 1 P reset_ $end
$var wire 1 Q soc_p $end
$var wire 1 J soc_vx $end
$var wire 1 I soc_vy $end
$var wire 4 h vx [3:0] $end
$var wire 4 i vy [3:0] $end
$var wire 8 j x [7:0] $end
$var wire 8 k y [7:0] $end
$var wire 8 l y_new [7:0] $end
$var wire 8 m x_new [7:0] $end
$var reg 1 n EOC_P $end
$var reg 1 o SOC $end
$var reg 8 p X [7:0] $end
$var reg 8 q Y [7:0] $end
$scope module pp $end
$var wire 4 r vx [3:0] $end
$var wire 4 s vy [3:0] $end
$var wire 8 t x [7:0] $end
$var wire 8 u y [7:0] $end
$var wire 8 v y_new [7:0] $end
$var wire 8 w x_new [7:0] $end
$var wire 8 x vy_ext [7:0] $end
$var wire 8 y vx_ext [7:0] $end
$var wire 8 z test_y [7:0] $end
$var wire 8 { test_x [7:0] $end
$var wire 1 | owy $end
$var wire 1 } owx $end
$scope module a1 $end
$var wire 1 ~ c_in $end
$var wire 1 } ow $end
$var wire 8 !" x [7:0] $end
$var wire 8 "" y [7:0] $end
$var wire 8 #" s [7:0] $end
$var wire 1 $" c_out $end
$var parameter 32 %" N $end
$upscope $end
$scope module a2 $end
$var wire 1 &" c_in $end
$var wire 1 | ow $end
$var wire 8 '" x [7:0] $end
$var wire 8 (" y [7:0] $end
$var wire 8 )" s [7:0] $end
$var wire 1 *" c_out $end
$var parameter 32 +" N $end
$upscope $end
$upscope $end
$upscope $end
$upscope $end
$scope fork f $end
$scope begin consumer $end
$var reg 4 ," c_vx [3:0] $end
$var reg 4 -" c_vy [3:0] $end
$var reg 8 ." c_x [7:0] $end
$var reg 8 /" c_y [7:0] $end
$var reg 8 0" i [7:0] $end
$var reg 8 1" smp_x [7:0] $end
$var reg 8 2" smp_y [7:0] $end
$upscope $end
$scope begin producer_vx $end
$var reg 8 3" i [7:0] $end
$var reg 4 4" pvx_vx [3:0] $end
$var reg 4 5" pvx_vy [3:0] $end
$var reg 8 6" pvx_x [7:0] $end
$var reg 8 7" pvx_y [7:0] $end
$upscope $end
$scope begin producer_vy $end
$var reg 8 8" i [7:0] $end
$var reg 4 9" pvy_vx [3:0] $end
$var reg 4 :" pvy_vy [3:0] $end
$var reg 8 ;" pvy_x [7:0] $end
$var reg 8 <" pvy_y [7:0] $end
$upscope $end
$upscope $end
$upscope $end
$enddefinitions $end
$comment Show the parameter values. $end
$dumpall
b1000 +"
b1000 %"
b100 f
b11 e
b10 d
b1 c
b0 b
b101 T
b10 F
b10 E
b1000 @
b1000 ?
b1000 5
b10 .
b1000 )
b1000 $
$end
#0
$dumpvars
bx <"
bx ;"
bx :"
bx 9"
bx 8"
bx 7"
bx 6"
bx 5"
bx 4"
bx 3"
bx 2"
bx 1"
bx 0"
bx /"
bx ."
bx -"
bx ,"
x*"
bx )"
bx ("
b0 '"
0&"
x$"
bx #"
bx ""
b0 !"
0~
x}
x|
bx {
bx z
bx y
bx x
bx w
bx v
b0 u
b0 t
bx s
bx r
b0 q
b0 p
0o
1n
bx m
bx l
b0 k
b0 j
bx i
bx h
b0 g
0a
0`
0_
0^
0]
0\
0[
1Z
b0 Y
b0 X
bx W
bx V
0U
bx S
bx R
0Q
0P
0O
1N
1M
0L
1K
0J
0I
b0 H
b0 G
bx D
bz C
bz B
bz A
bx >
bx =
bx <
bx ;
z:
z9
bz 8
bz 7
x6
x4
bx 3
x2
bz 1
bz 0
z/
x-
x,
bz +
bz *
bx (
z'
x&
bz %
bx #
z"
bz !
$end
#5
1L
1U
1P
#10
0L
0U
b101 4"
b0 5"
b101 6"
b0 7"
b0 3"
b101 9"
b0 :"
b101 ;"
b0 <"
b0 8"
1\
1Q
b101 ,"
b0 -"
b101 ."
b0 /"
b0 0"
#15
1_
b1 g
1L
1U
#20
0L
0U
#25
0K
0n
1L
1U
#30
0L
0U
#35
1L
1U
#40
0L
0U
#45
1a
0_
1^
b10 g
1L
1U
0\
0Q
#50
0L
0U
#55
1I
1J
1o
1L
1U
#60
0L
0U
#65
1L
1U
#70
0L
0U
#75
1L
1U
#80
0L
0U
#85
1L
1U
0Z
0N
#90
0L
0U
#95
1L
1U
#100
0L
0U
#105
0a
1`
b11 g
1L
1U
1[
0M
#110
0L
0U
#115
0I
0J
0o
1L
1U
#120
0L
0U
#125
1L
1U
#130
0L
0U
#135
1L
1U
#140
0L
0U
#145
1L
1U
b0 x
b0 ("
b0 S
b0 W
b0 i
b0 s
#146
b0 l
b0 v
b0 z
b0 )"
0*"
#147
0|
#150
0L
0U
#155
1L
1U
0[
b1001 9"
b111 :"
b11111110 ;"
b111 <"
b1 8"
1N
#160
0L
0U
#165
1L
1U
b101 y
b101 ""
b101 R
b101 V
b101 h
b101 r
#166
b0x0x m
b0x0x w
b101 {
b101 #"
0$"
#167
b101 m
b101 w
0}
#170
0L
0U
#175
0`
1]
b100 g
1L
1U
1Z
b1001 4"
b111 5"
b11111110 6"
b111 7"
b1 3"
1M
#180
0L
0U
#185
0^
0]
b101 H
b101 Y
b101 j
b101 p
b101 t
b101 !"
b0 g
1L
1U
#186
b1010 m
b1010 w
b1010 {
b1010 #"
#190
0L
0U
#195
b0 2"
b101 1"
1K
1n
1L
1U
#200
0L
0U
#205
1L
1U
#210
0L
0U
1\
1Q
b1001 ,"
b111 -"
b11111110 ."
b111 /"
b1 0"
#215
1_
b1 g
1L
1U
#220
0L
0U
#225
0K
0n
1L
1U
#230
0L
0U
#235
1L
1U
#240
0L
0U
#245
1a
0_
1^
b10 g
1L
1U
0\
0Q
#250
0L
0U
#255
bx x
bx ("
bx S
bx W
bx i
bx s
bx y
bx ""
bx R
bx V
bx h
bx r
1I
1J
1o
1L
1U
#256
bx l
bx v
bx m
bx w
bx z
bx )"
x*"
bx {
bx #"
x$"
#257
x|
x}
#260
0L
0U
#265
1L
1U
#270
0L
0U
#275
1L
1U
#280
0L
0U
#285
1L
1U
0Z
0N
#290
0L
0U
#295
1L
1U
#300
0L
0U
#305
0a
1`
b11 g
1L
1U
1[
0M
#310
0L
0U
#315
0I
0J
0o
1L
1U
#320
0L
0U
#325
1L
1U
#330
0L
0U
#335
1L
1U
#340
0L
0U
#345
1L
1U
b111 x
b111 ("
b111 S
b111 W
b111 i
b111 s
#346
b0xxx l
b0xxx v
b111 z
b111 )"
0*"
#347
b111 l
b111 v
0|
#350
0L
0U
#355
1L
1U
0[
b100 9"
b10 ;"
b1110 <"
b10 8"
1N
#360
0L
0U
#365
1L
1U
b11111001 y
b11111001 ""
b1001 R
b1001 V
b1001 h
b1001 r
#366
b11111110 m
b11111110 w
b11111110 {
b11111110 #"
0$"
0}
#370
0L
0U
#375
0`
1]
b100 g
1L
1U
1Z
b100 4"
b10 6"
b1110 7"
b10 3"
1M
#380
0L
0U
#385
0^
0]
b11111110 H
b11111110 Y
b11111110 j
b11111110 p
b11111110 t
b11111110 !"
b111 G
b111 X
b111 k
b111 q
b111 u
b111 '"
b0 g
1L
1U
#386
b11110111 m
b11110111 w
b1110 l
b1110 v
b11110111 {
b11110111 #"
1$"
b1110 z
b1110 )"
#390
0L
0U
#395
b111 2"
b11111110 1"
1K
1n
1L
1U
#400
0L
0U
#405
1L
1U
#410
0L
0U
1\
1Q
b100 ,"
b10 ."
b1110 /"
b10 0"
#415
1_
b1 g
1L
1U
#420
0L
0U
#425
0K
0n
1L
1U
#430
0L
0U
#435
1L
1U
#440
0L
0U
#445
1a
0_
1^
b10 g
1L
1U
0\
0Q
#450
0L
0U
#455
bx x
bx ("
bx S
bx W
bx i
bx s
bx y
bx ""
bx R
bx V
bx h
bx r
1I
1J
1o
1L
1U
#456
bx l
bx v
bx m
bx w
bx z
bx )"
x*"
bx {
bx #"
x$"
#457
x|
x}
#460
0L
0U
#465
1L
1U
#470
0L
0U
#475
1L
1U
#480
0L
0U
#485
1L
1U
0Z
0N
#490
0L
0U
#495
1L
1U
#500
0L
0U
#505
0a
1`
b11 g
1L
1U
1[
0M
#510
0L
0U
#515
0I
0J
0o
1L
1U
#520
0L
0U
#525
1L
1U
#530
0L
0U
#535
1L
1U
#540
0L
0U
#545
1L
1U
b111 x
b111 ("
b111 S
b111 W
b111 i
b111 s
#546
b0x11x l
b0x11x v
b1110 z
b1110 )"
0*"
#547
b1110 l
b1110 v
0|
#550
0L
0U
#555
1L
1U
0[
b1111 9"
b10 :"
b1 ;"
b10000 <"
b11 8"
1N
#560
0L
0U
#565
1L
1U
b100 y
b100 ""
b100 R
b100 V
b100 h
b100 r
#566
b10 m
b10 w
b10 {
b10 #"
1$"
0}
#570
0L
0U
#575
0`
1]
b100 g
1L
1U
1Z
b1111 4"
b10 5"
b1 6"
b10000 7"
b11 3"
1M
#580
0L
0U
#585
0^
0]
b10 H
b10 Y
b10 j
b10 p
b10 t
b10 !"
b1110 G
b1110 X
b1110 k
b1110 q
b1110 u
b1110 '"
b0 g
1L
1U
#586
b110 m
b110 w
b10101 l
b10101 v
b110 {
b110 #"
0$"
b10101 z
b10101 )"
#590
0L
0U
#595
b1110 2"
b10 1"
1K
1n
1L
1U
#600
0L
0U
#605
1L
1U
#610
0L
0U
1\
1Q
b1111 ,"
b10 -"
b1 ."
b10000 /"
b11 0"
#615
1_
b1 g
1L
1U
#620
0L
0U
#625
0K
0n
1L
1U
#630
0L
0U
#635
1L
1U
#640
0L
0U
#645
1a
0_
1^
b10 g
1L
1U
0\
0Q
#650
0L
0U
#655
bx x
bx ("
bx S
bx W
bx i
bx s
bx y
bx ""
bx R
bx V
bx h
bx r
1I
1J
1o
1L
1U
#656
bx l
bx v
bx m
bx w
bx z
bx )"
x*"
bx {
bx #"
x$"
#657
x|
x}
#660
0L
0U
#665
1L
1U
#670
0L
0U
#675
1L
1U
#680
0L
0U
#685
1L
1U
0Z
0N
#690
0L
0U
#695
1L
1U
#700
0L
0U
#705
0a
1`
b11 g
1L
1U
1[
0M
#710
0L
0U
#715
0I
0J
0o
1L
1U
#720
0L
0U
#725
1L
1U
#730
0L
0U
#735
1L
1U
#740
0L
0U
#745
1L
1U
b10 x
b10 ("
b10 S
b10 W
b10 i
b10 s
#746
b0xxxx0 l
b0xxxx0 v
b10000 z
b10000 )"
0*"
#747
b10000 l
b10000 v
0|
#750
0L
0U
#755
1L
1U
0[
b1101 :"
b0 ;"
b1101 <"
b100 8"
1N
#760
0L
0U
#765
1L
1U
b11111111 y
b11111111 ""
b1111 R
b1111 V
b1111 h
b1111 r
#766
b1 m
b1 w
b1 {
b1 #"
1$"
0}
#770
0L
0U
#775
0`
1]
b100 g
1L
1U
1Z
b1101 5"
b0 6"
b1101 7"
b100 3"
1M
#780
0L
0U
#785
0^
0]
b1 H
b1 Y
b1 j
b1 p
b1 t
b1 !"
b10000 G
b10000 X
b10000 k
b10000 q
b10000 u
b10000 '"
b0 g
1L
1U
#786
b0 m
b0 w
b10010 l
b10010 v
b0 {
b0 #"
b10010 z
b10010 )"
#790
0L
0U
#795
b10000 2"
b1 1"
1K
1n
1L
1U
#800
0L
0U
#805
1L
1U
#810
0L
0U
1\
1Q
b1101 -"
b0 ."
b1101 /"
b100 0"
#815
1_
b1 g
1L
1U
#820
0L
0U
#825
0K
0n
1L
1U
#830
0L
0U
#835
1L
1U
#840
0L
0U
#845
1a
0_
1^
b10 g
1L
1U
0\
0Q
#850
0L
0U
#855
bx x
bx ("
bx S
bx W
bx i
bx s
bx y
bx ""
bx R
bx V
bx h
bx r
1I
1J
1o
1L
1U
#856
bx l
bx v
bx m
bx w
bx z
bx )"
x*"
bx {
bx #"
x$"
#857
x|
x}
#860
0L
0U
#865
1L
1U
#870
0L
0U
#875
1L
1U
#880
0L
0U
#885
1L
1U
0Z
0N
#890
0L
0U
#895
1L
1U
#900
0L
0U
#905
0a
1`
b11 g
1L
1U
1[
0M
#910
0L
0U
#915
0I
0J
0o
1L
1U
#920
0L
0U
#925
1L
1U
#930
0L
0U
#935
1L
1U
#940
0L
0U
#945
1L
1U
b11111101 x
b11111101 ("
b1101 S
b1101 W
b1101 i
b1101 s
#946
b1101 l
b1101 v
b1101 z
b1101 )"
1*"
0|
#950
0L
0U
#955
1L
1U
0[
b110 9"
b100 :"
b110 ;"
b10001 <"
b101 8"
1N
#960
0L
0U
#965
1L
1U
b11111111 y
b11111111 ""
b1111 R
b1111 V
b1111 h
b1111 r
#966
b0 m
b0 w
b0 {
b0 #"
1$"
0}
#970
0L
0U
#975
0`
1]
b100 g
1L
1U
1Z
b110 4"
b100 5"
b110 6"
b10001 7"
b101 3"
1M
#980
0L
0U
#985
0^
0]
b0 H
b0 Y
b0 j
b0 p
b0 t
b0 !"
b1101 G
b1101 X
b1101 k
b1101 q
b1101 u
b1101 '"
b0 g
1L
1U
#986
b11111111 m
b11111111 w
b1010 l
b1010 v
b11111111 {
b11111111 #"
0$"
b1010 z
b1010 )"
#990
0L
0U
#995
b1101 2"
b0 1"
1K
1n
1L
1U
#1000
0L
0U
#1005
1L
1U
#1010
0L
0U
1\
1Q
b110 ,"
b100 -"
b110 ."
b10001 /"
b101 0"
#1015
1_
b1 g
1L
1U
#1020
0L
0U
#1025
0K
0n
1L
1U
#1030
0L
0U
#1035
1L
1U
#1040
0L
0U
#1045
1a
0_
1^
b10 g
1L
1U
0\
0Q
#1050
0L
0U
#1055
bx x
bx ("
bx S
bx W
bx i
bx s
bx y
bx ""
bx R
bx V
bx h
bx r
1I
1J
1o
1L
1U
#1056
bx l
bx v
bx m
bx w
bx z
bx )"
x*"
bx {
bx #"
x$"
x}
#1057
x|
#1060
0L
0U
#1065
1L
1U
#1070
0L
0U
#1075
1L
1U
#1080
0L
0U
#1085
1L
1U
0Z
0N
#1090
0L
0U
#1095
1L
1U
#1100
0L
0U
#1105
0a
1`
b11 g
1L
1U
1[
0M
#1110
0L
0U
#1115
0I
0J
0o
1L
1U
#1120
0L
0U
#1125
1L
1U
#1130
0L
0U
#1135
1L
1U
#1140
0L
0U
#1145
1L
1U
b100 x
b100 ("
b100 S
b100 W
b100 i
b100 s
#1146
b0xxx01 l
b0xxx01 v
b10001 z
b10001 )"
0*"
#1147
b10001 l
b10001 v
0|
#1150
0L
0U
#1155
1L
1U
0[
b1011 9"
b110 :"
b1 ;"
b10111 <"
b110 8"
1N
#1160
0L
0U
#1165
1L
1U
b110 y
b110 ""
b110 R
b110 V
b110 h
b110 r
#1166
b0xx0 m
b0xx0 w
b110 {
b110 #"
0$"
#1167
b110 m
b110 w
0}
#1170
0L
0U
#1175
0`
1]
b100 g
1L
1U
1Z
b1011 4"
b110 5"
b1 6"
b10111 7"
b110 3"
1M
#1180
0L
0U
#1185
0^
0]
b110 H
b110 Y
b110 j
b110 p
b110 t
b110 !"
b10001 G
b10001 X
b10001 k
b10001 q
b10001 u
b10001 '"
b0 g
1L
1U
#1186
b1100 m
b1100 w
b10101 l
b10101 v
b1100 {
b1100 #"
b10101 z
b10101 )"
#1190
0L
0U
#1195
b10001 2"
b110 1"
1K
1n
1L
1U
#1200
0L
0U
#1205
1L
1U
#1210
0L
0U
1\
1Q
b1011 ,"
b110 -"
b1 ."
b10111 /"
b110 0"
#1215
1_
b1 g
1L
1U
#1220
0L
0U
#1225
0K
0n
1L
1U
#1230
0L
0U
#1235
1L
1U
#1240
0L
0U
#1245
1a
0_
1^
b10 g
1L
1U
0\
0Q
#1250
0L
0U
#1255
bx x
bx ("
bx S
bx W
bx i
bx s
bx y
bx ""
bx R
bx V
bx h
bx r
1I
1J
1o
1L
1U
#1256
bx l
bx v
bx m
bx w
bx z
bx )"
x*"
bx {
bx #"
x$"
#1257
x|
x}
#1260
0L
0U
#1265
1L
1U
#1270
0L
0U
#1275
1L
1U
#1280
0L
0U
#1285
1L
1U
0Z
0N
#1290
0L
0U
#1295
1L
1U
#1300
0L
0U
#1305
0a
1`
b11 g
1L
1U
1[
0M
#1310
0L
0U
#1315
0I
0J
0o
1L
1U
#1320
0L
0U
#1325
1L
1U
#1330
0L
0U
#1335
1L
1U
#1340
0L
0U
#1345
1L
1U
b110 x
b110 ("
b110 S
b110 W
b110 i
b110 s
#1346
b10xx1 l
b10xx1 v
b10111 z
b10111 )"
0*"
#1347
b10111 l
b10111 v
0|
#1350
0L
0U
#1355
1L
1U
0[
b1001 :"
b11111100 ;"
b10000 <"
b111 8"
1N
#1360
0L
0U
#1365
1L
1U
b11111011 y
b11111011 ""
b1011 R
b1011 V
b1011 h
b1011 r
#1366
b1 m
b1 w
b1 {
b1 #"
1$"
0}
#1370
0L
0U
#1375
0`
1]
b100 g
1L
1U
1Z
b1001 5"
b11111100 6"
b10000 7"
b111 3"
1M
#1380
0L
0U
#1385
0^
0]
b1 H
b1 Y
b1 j
b1 p
b1 t
b1 !"
b10111 G
b10111 X
b10111 k
b10111 q
b10111 u
b10111 '"
b0 g
1L
1U
#1386
b11111100 m
b11111100 w
b11101 l
b11101 v
b11111100 {
b11111100 #"
0$"
b11101 z
b11101 )"
#1390
0L
0U
#1395
b10111 2"
b1 1"
1K
1n
1L
1U
#1400
0L
0U
#1405
1L
1U
#1410
0L
0U
1\
1Q
b1001 -"
b11111100 ."
b10000 /"
b111 0"
#1415
1_
b1 g
1L
1U
#1420
0L
0U
#1425
0K
0n
1L
1U
#1430
0L
0U
#1435
1L
1U
#1440
0L
0U
#1445
1a
0_
1^
b10 g
1L
1U
0\
0Q
#1450
0L
0U
#1455
bx x
bx ("
bx S
bx W
bx i
bx s
bx y
bx ""
bx R
bx V
bx h
bx r
1I
1J
1o
1L
1U
#1456
bx l
bx v
bx m
bx w
bx z
bx )"
x*"
bx {
bx #"
x$"
x}
#1457
x|
#1460
0L
0U
#1465
1L
1U
#1470
0L
0U
#1475
1L
1U
#1480
0L
0U
#1485
1L
1U
0Z
0N
#1490
0L
0U
#1495
1L
1U
#1500
0L
0U
#1505
0a
1`
b11 g
1L
1U
1[
0M
#1510
0L
0U
#1515
0I
0J
0o
1L
1U
#1520
0L
0U
#1525
1L
1U
#1530
0L
0U
#1535
1L
1U
#1540
0L
0U
#1545
1L
1U
b11111001 x
b11111001 ("
b1001 S
b1001 W
b1001 i
b1001 s
#1546
b10000 l
b10000 v
b10000 z
b10000 )"
1*"
0|
#1550
0L
0U
#1555
1L
1U
0[
b0 9"
b1011 :"
b1011 <"
b1000 8"
1N
#1560
0L
0U
#1565
1L
1U
b11111011 y
b11111011 ""
b1011 R
b1011 V
b1011 h
b1011 r
#1566
b11111100 m
b11111100 w
b11111100 {
b11111100 #"
0$"
0}
#1570
0L
0U
#1575
0`
1]
b100 g
1L
1U
1Z
b0 4"
b1011 5"
b1011 7"
b1000 3"
1M
#1580
0L
0U
#1585
0^
0]
b11111100 H
b11111100 Y
b11111100 j
b11111100 p
b11111100 t
b11111100 !"
b10000 G
b10000 X
b10000 k
b10000 q
b10000 u
b10000 '"
b0 g
1L
1U
#1586
b11110111 m
b11110111 w
b1001 l
b1001 v
b11110111 {
b11110111 #"
1$"
b1001 z
b1001 )"
#1590
0L
0U
#1595
b10000 2"
b11111100 1"
1K
1n
1L
1U
#1600
0L
0U
#1605
1L
1U
#1610
0L
0U
1\
1Q
b0 ,"
b1011 -"
b1011 /"
b1000 0"
#1615
1_
b1 g
1L
1U
#1620
0L
0U
#1625
0K
0n
1L
1U
#1630
0L
0U
#1635
1L
1U
#1640
0L
0U
#1645
1a
0_
1^
b10 g
1L
1U
0\
0Q
#1650
0L
0U
#1655
bx x
bx ("
bx S
bx W
bx i
bx s
bx y
bx ""
bx R
bx V
bx h
bx r
1I
1J
1o
1L
1U
#1656
bx l
bx v
bx m
bx w
bx z
bx )"
x*"
bx {
bx #"
x$"
#1657
x|
x}
#1660
0L
0U
#1665
1L
1U
#1670
0L
0U
#1675
1L
1U
#1680
0L
0U
#1685
1L
1U
0Z
0N
#1690
0L
0U
#1695
1L
1U
#1700
0L
0U
#1705
0a
1`
b11 g
1L
1U
1[
0M
#1710
0L
0U
#1715
0I
0J
0o
1L
1U
#1720
0L
0U
#1725
1L
1U
#1730
0L
0U
#1735
1L
1U
#1740
0L
0U
#1745
1L
1U
b11111011 x
b11111011 ("
b1011 S
b1011 W
b1011 i
b1011 s
#1746
b1011 l
b1011 v
b1011 z
b1011 )"
1*"
0|
#1750
0L
0U
#1755
1L
1U
0[
b1 :"
b1100 <"
b1001 8"
1N
#1760
0L
0U
#1765
1L
1U
b0 y
b0 ""
b0 R
b0 V
b0 h
b0 r
#1766
b11111100 m
b11111100 w
b11111100 {
b11111100 #"
0$"
0}
#1770
0L
0U
#1775
0`
1]
b100 g
1L
1U
1Z
b1 5"
b1100 7"
b1001 3"
1M
#1780
0L
0U
#1785
0^
0]
b1011 G
b1011 X
b1011 k
b1011 q
b1011 u
b1011 '"
b0 g
1L
1U
#1786
b110 l
b110 v
b110 z
b110 )"
#1790
0L
0U
#1795
b1011 2"
1K
1n
1L
1U
#1800
0L
0U
#1805
1L
1U
#1810
0L
0U
1\
1Q
b1 -"
b1100 /"
b1001 0"
#1815
1_
b1 g
1L
1U
#1820
0L
0U
#1825
0K
0n
1L
1U
#1830
0L
0U
#1835
1L
1U
#1840
0L
0U
#1845
1a
0_
1^
b10 g
1L
1U
0\
0Q
#1850
0L
0U
#1855
bx x
bx ("
bx S
bx W
bx i
bx s
bx y
bx ""
bx R
bx V
bx h
bx r
1I
1J
1o
1L
1U
#1856
bx l
bx v
bx m
bx w
bx z
bx )"
x*"
bx {
bx #"
x$"
#1857
x|
x}
#1860
0L
0U
#1865
1L
1U
#1870
0L
0U
#1875
1L
1U
#1880
0L
0U
#1885
1L
1U
0Z
0N
#1890
0L
0U
#1895
1L
1U
#1900
0L
0U
#1905
0a
1`
b11 g
1L
1U
1[
0M
#1910
0L
0U
#1915
0I
0J
0o
1L
1U
#1920
0L
0U
#1925
1L
1U
#1930
0L
0U
#1935
1L
1U
#1940
0L
0U
#1945
1L
1U
b1 x
b1 ("
b1 S
b1 W
b1 i
b1 s
#1946
b1xxx l
b1xxx v
b1100 z
b1100 )"
0*"
#1947
b1100 l
b1100 v
0|
#1950
0L
0U
#1955
1L
1U
0[
b1010 9"
b1001 :"
b11110110 ;"
b101 <"
b1010 8"
1N
#1960
0L
0U
#1965
1L
1U
b0 y
b0 ""
b0 R
b0 V
b0 h
b0 r
#1966
b11111100 m
b11111100 w
b11111100 {
b11111100 #"
0$"
0}
#1970
0L
0U
#1975
0`
1]
b100 g
1L
1U
1Z
b1010 4"
b1001 5"
b11110110 6"
b101 7"
b1010 3"
1M
#1980
0L
0U
#1985
0^
0]
b1100 G
b1100 X
b1100 k
b1100 q
b1100 u
b1100 '"
b0 g
1L
1U
#1986
b1101 l
b1101 v
b1101 z
b1101 )"
#1990
0L
0U
#1995
b1100 2"
1K
1n
1L
1U
#2000
0L
0U
#2005
1L
1U
#2010
0L
0U
1\
1Q
b1010 ,"
b1001 -"
b11110110 ."
b101 /"
b1010 0"
#2015
1_
b1 g
1L
1U
#2020
0L
0U
#2025
0K
0n
1L
1U
#2030
0L
0U
#2035
1L
1U
#2040
0L
0U
#2045
1a
0_
1^
b10 g
1L
1U
0\
0Q
#2050
0L
0U
#2055
bx x
bx ("
bx S
bx W
bx i
bx s
bx y
bx ""
bx R
bx V
bx h
bx r
1I
1J
1o
1L
1U
#2056
bx l
bx v
bx m
bx w
bx z
bx )"
x*"
bx {
bx #"
x$"
#2057
x|
x}
#2060
0L
0U
#2065
1L
1U
#2070
0L
0U
#2075
1L
1U
#2080
0L
0U
#2085
1L
1U
0Z
0N
#2090
0L
0U
#2095
1L
1U
#2100
0L
0U
#2105
0a
1`
b11 g
1L
1U
1[
0M
#2110
0L
0U
#2115
0I
0J
0o
1L
1U
#2120
0L
0U
#2125
1L
1U
#2130
0L
0U
#2135
1L
1U
#2140
0L
0U
#2145
1L
1U
b11111001 x
b11111001 ("
b1001 S
b1001 W
b1001 i
b1001 s
#2146
b101 l
b101 v
b101 z
b101 )"
1*"
0|
#2150
0L
0U
#2155
1L
1U
0[
b1100 9"
b110 :"
b11110010 ;"
b1011 <"
b1011 8"
1N
#2160
0L
0U
#2165
1L
1U
b11111010 y
b11111010 ""
b1010 R
b1010 V
b1010 h
b1010 r
#2166
b1111x1x0 m
b1111x1x0 w
b11110110 {
b11110110 #"
1$"
#2167
b11110110 m
b11110110 w
0}
#2170
0L
0U
#2175
0`
1]
b100 g
1L
1U
1Z
b1100 4"
b110 5"
b11110010 6"
b1011 7"
b1011 3"
1M
#2180
0L
0U
#2185
0^
0]
b11110110 H
b11110110 Y
b11110110 j
b11110110 p
b11110110 t
b11110110 !"
b101 G
b101 X
b101 k
b101 q
b101 u
b101 '"
b0 g
1L
1U
#2186
b11110000 m
b11110000 w
b11111110 l
b11111110 v
b11110000 {
b11110000 #"
b11111110 z
b11111110 )"
0*"
#2190
0L
0U
#2195
b101 2"
b11110110 1"
1K
1n
1L
1U
#2200
0L
0U
#2205
1L
1U
#2210
0L
0U
1\
1Q
b1100 ,"
b110 -"
b11110010 ."
b1011 /"
b1011 0"
#2215
1_
b1 g
1L
1U
#2220
0L
0U
#2225
0K
0n
1L
1U
#2230
0L
0U
#2235
1L
1U
#2240
0L
0U
#2245
1a
0_
1^
b10 g
1L
1U
0\
0Q
#2250
0L
0U
#2255
bx x
bx ("
bx S
bx W
bx i
bx s
bx y
bx ""
bx R
bx V
bx h
bx r
1I
1J
1o
1L
1U
#2256
bx m
bx w
bx l
bx v
bx z
bx )"
x*"
bx {
bx #"
x$"
x|
#2257
x}
#2260
0L
0U
#2265
1L
1U
#2270
0L
0U
#2275
1L
1U
#2280
0L
0U
#2285
1L
1U
0Z
0N
#2290
0L
0U
#2295
1L
1U
#2300
0L
0U
#2305
0a
1`
b11 g
1L
1U
1[
0M
#2310
0L
0U
#2315
0I
0J
0o
1L
1U
#2320
0L
0U
#2325
1L
1U
#2330
0L
0U
#2335
1L
1U
#2340
0L
0U
#2345
1L
1U
b110 x
b110 ("
b110 S
b110 W
b110 i
b110 s
#2346
b0xxx1 l
b0xxx1 v
b1011 z
b1011 )"
0*"
