reti_logiche/esami/verilog/2023-06-27/waveform.vcd
$date
	Fri May 30 17:27:35 2025
$end
$version
	Icarus Verilog
$end
$timescale
	1s
$end
$scope module testbench $end
$var wire 1 ! rfd_y $end
$var wire 1 " rfd_x $end
$var wire 1 # out $end
$var wire 1 $ clock $end
$var reg 1 % dav_x $end
$var reg 1 & dav_y $end
$var reg 1 ' reset_ $end
$var reg 8 ( x [7:0] $end
$var reg 8 ) y [7:0] $end
$scope function get_testcase $end
$upscope $end
$scope module clk $end
$var wire 1 $ clock $end
$var parameter 32 * HALF_PERIOD $end
$var reg 1 + CLOCK $end
$upscope $end
$scope module dut $end
$var wire 1 $ clock $end
$var wire 1 % dav_x $end
$var wire 1 & dav_y $end
$var wire 1 ' reset_ $end
$var wire 8 , x [7:0] $end
$var wire 8 - y [7:0] $end
$var wire 1 ! rfd_y $end
$var wire 1 " rfd_x $end
$var wire 1 # out $end
$var wire 1 . c1 $end
$var wire 1 / c0 $end
$var wire 1 0 b1 $end
$var wire 1 1 b0 $end
$scope module pc $end
$var wire 1 $ clock $end
$var wire 1 ' reset_ $end
$var wire 1 . c1 $end
$var wire 1 / c0 $end
$var wire 1 0 b1 $end
$var wire 1 1 b0 $end
$var parameter 32 2 S0 $end
$var parameter 32 3 S1 $end
$var parameter 32 4 S2 $end
$var reg 2 5 STAR [1:0] $end
$upscope $end
$scope module po $end
$var wire 1 1 b0 $end
$var wire 1 0 b1 $end
$var wire 1 / c0 $end
$var wire 1 $ clock $end
$var wire 1 % dav_x $end
$var wire 1 & dav_y $end
$var wire 1 # out $end
$var wire 1 ' reset_ $end
$var wire 1 " rfd_x $end
$var wire 1 ! rfd_y $end
$var wire 8 6 x [7:0] $end
$var wire 8 7 y [7:0] $end
$var wire 8 8 max [7:0] $end
$var wire 1 . c1 $end
$var reg 8 9 COUNT [7:0] $end
$var reg 1 : OUT $end
$var reg 1 ; RFD $end
$scope module m $end
$var wire 8 < x [7:0] $end
$var wire 8 = y [7:0] $end
$var wire 8 > max [7:0] $end
$var wire 1 ? c_out $end
$scope module a $end
$var wire 1 @ c_in $end
$var wire 1 A ow $end
$var wire 8 B x [7:0] $end
$var wire 8 C y [7:0] $end
$var wire 8 D s [7:0] $end
$var wire 1 ? c_out $end
$var parameter 32 E N $end
$upscope $end
$upscope $end
$upscope $end
$upscope $end
$scope fork f $end
$scope begin consumer $end
$var reg 6 F i [5:0] $end
$var reg 8 G t_x [7:0] $end
$var reg 8 H t_y [7:0] $end
$var reg 8 I t_z [7:0] $end
$var real 1 J diff $end
$var real 1 K sample_ne $end
$var real 1 L sample_pe $end
$upscope $end
$scope begin producer_x $end
$var reg 6 M i [5:0] $end
$var reg 8 N t_x [7:0] $end
$var reg 8 O t_y [7:0] $end
$var reg 8 P t_z [7:0] $end
$upscope $end
$scope begin producer_y $end
$var reg 6 Q i [5:0] $end
$var reg 8 R t_x [7:0] $end
$var reg 8 S t_y [7:0] $end
$var reg 8 T t_z [7:0] $end
$upscope $end
$upscope $end
$upscope $end
$enddefinitions $end
$comment Show the parameter values. $end
$dumpall
b1000 E
b10 4
b1 3
b0 2
b101 *
$end
#0
$dumpvars
bx T
bx S
bx R
bx Q
bx P
bx O
bx N
bx M
r0 L
r0 K
r0 J
bx I
bx H
bx G
bx F
bx D
bx C
bx B
xA
1@
x?
bx >
bx =
bx <
1;
0:
bx 9
bx 8
bx 7
bx 6
b0 5
11
00
0/
x.
bx -
bx ,
0+
bx )
bx (
0'
1&
1%
0$
0#
1"
1!
$end
#5
1$
1+
b101 N
b1100 O
b1100 P
b0 M
b101 R
b1100 S
b1100 T
b0 Q
b101 G
b1100 H
b1100 I
b0 F
1'
#10
0$
0+
#15
1$
1+
#20
0$
0+
#25
1$
1+
#30
0$
0+
#35
1$
1+
b101 (
b101 ,
b101 6
b101 <
b101 B
#40
0$
0+
#45
01
b1 5
1$
1+
1/
0%
#50
0$
0+
#55
0!
0"
0;
1$
1+
#60
0$
0+
#65
0.
b0x10x 9
1$
1+
b11110011 C
b0x10x 8
b0x10x >
b1100 )
b1100 -
b1100 7
b1100 =
#66
b1100 8
b1100 >
b11111001 D
0?
0A
#70
0$
0+
#75
b1100 9
1$
1+
#80
0$
0+
#85
1$
1+
0&
bx (
bx ,
bx 6
bx <
bx B
1%
#86
bx 8
bx >
bx D
x?
xA
#90
0$
0+
#95
x.
bx 9
1$
1+
