reti_logiche/esami/verilog/2023-06-27/waveform.vcd
$date
	Fri May 30 18:10:39 2025
$end
$version
	Icarus Verilog
$end
$timescale
	1s
$end
$scope module testbench $end
$var wire 1 ! rfd_y $end
$var wire 1 " rfd_x $end
$var wire 1 # out $end
$var wire 1 $ clock $end
$var reg 1 % dav_x $end
$var reg 1 & dav_y $end
$var reg 1 ' reset_ $end
$var reg 8 ( x [7:0] $end
$var reg 8 ) y [7:0] $end
$scope function get_testcase $end
$upscope $end
$scope module clk $end
$var wire 1 $ clock $end
$var parameter 32 * HALF_PERIOD $end
$var reg 1 + CLOCK $end
$upscope $end
$scope module dut $end
$var wire 1 $ clock $end
$var wire 1 % dav_x $end
$var wire 1 & dav_y $end
$var wire 1 ' reset_ $end
$var wire 8 , x [7:0] $end
$var wire 8 - y [7:0] $end
$var wire 1 ! rfd_y $end
$var wire 1 " rfd_x $end
$var wire 1 # out $end
$var wire 1 . c2 $end
$var wire 1 / c1 $end
$var wire 1 0 c0 $end
$var wire 1 1 b1 $end
$var wire 1 2 b0 $end
$scope module pc $end
$var wire 1 $ clock $end
$var wire 1 ' reset_ $end
$var wire 1 . c2 $end
$var wire 1 / c1 $end
$var wire 1 0 c0 $end
$var wire 1 1 b1 $end
$var wire 1 2 b0 $end
$var parameter 32 3 S0 $end
$var parameter 32 4 S1 $end
$var parameter 32 5 S2 $end
$var reg 2 6 STAR [1:0] $end
$upscope $end
$scope module po $end
$var wire 1 2 b0 $end
$var wire 1 1 b1 $end
$var wire 1 0 c0 $end
$var wire 1 / c1 $end
$var wire 1 $ clock $end
$var wire 1 % dav_x $end
$var wire 1 & dav_y $end
$var wire 1 # out $end
$var wire 1 ' reset_ $end
$var wire 1 " rfd_x $end
$var wire 1 ! rfd_y $end
$var wire 8 7 x [7:0] $end
$var wire 8 8 y [7:0] $end
$var wire 8 9 max [7:0] $end
$var wire 1 . c2 $end
$var reg 8 : COUNT [7:0] $end
$var reg 1 ; OUT $end
$var reg 1 < RFD $end
$scope module m $end
$var wire 8 = x [7:0] $end
$var wire 8 > y [7:0] $end
$var wire 8 ? max [7:0] $end
$var wire 1 @ c_out $end
$scope module a $end
$var wire 1 A c_in $end
$var wire 1 B ow $end
$var wire 8 C x [7:0] $end
$var wire 8 D y [7:0] $end
$var wire 8 E s [7:0] $end
$var wire 1 @ c_out $end
$var parameter 32 F N $end
$upscope $end
$upscope $end
$upscope $end
$upscope $end
$scope fork f $end
$scope begin consumer $end
$var reg 6 G i [5:0] $end
$var reg 8 H t_x [7:0] $end
$var reg 8 I t_y [7:0] $end
$var reg 8 J t_z [7:0] $end
$var real 1 K diff $end
$var real 1 L sample_ne $end
$var real 1 M sample_pe $end
$upscope $end
$scope begin producer_x $end
$var reg 6 N i [5:0] $end
$var reg 8 O t_x [7:0] $end
$var reg 8 P t_y [7:0] $end
$var reg 8 Q t_z [7:0] $end
$upscope $end
$scope begin producer_y $end
$var reg 6 R i [5:0] $end
$var reg 8 S t_x [7:0] $end
$var reg 8 T t_y [7:0] $end
$var reg 8 U t_z [7:0] $end
$upscope $end
$upscope $end
$upscope $end
$enddefinitions $end
$comment Show the parameter values. $end
$dumpall
b1000 F
b10 5
b1 4
b0 3
b101 *
$end
#0
$dumpvars
bx U
bx T
bx S
bx R
bx Q
bx P
bx O
bx N
r0 M
r0 L
r0 K
bx J
bx I
bx H
bx G
bx E
bx D
bx C
xB
1A
x@
bx ?
bx >
bx =
1<
0;
bx :
bx 9
bx 8
bx 7
b0 6
02
01
00
1/
x.
bx -
bx ,
0+
bx )
bx (
0'
1&
1%
0$
0#
1"
1!
$end
#5
1$
1+
b101 O
b1100 P
b1100 Q
b0 N
b101 S
b1100 T
b1100 U
b0 R
b101 H
b1100 I
b1100 J
b0 G
1'
#10
0$
0+
#15
1$
1+
#20
0$
0+
#25
1$
1+
#30
0$
0+
#35
1$
1+
b101 (
b101 ,
b101 7
b101 =
b101 C
#40
0$
0+
#45
1$
1+
0/
0%
#50
0$
0+
#55
1$
1+
#60
0$
0+
#65
0.
b0x10x :
1$
1+
b11110011 D
b0x10x 9
b0x10x ?
b1100 )
b1100 -
b1100 8
b1100 >
#66
b1100 9
b1100 ?
b11111001 E
0@
0B
#70
0$
0+
#75
b1100 :
1$
1+
#80
0$
0+
#85
12
b1 6
1$
1+
10
0&
#90
0$
0+
#95
0!
0"
0<
1$
1+
#100
0$
0+
#105
1$
1+
#110
0$
0+
#115
1$
1+
#120
0$
0+
#125
1$
1+
00
bx (
bx ,
bx 7
bx =
bx C
1%
#126
bx 9
bx ?
bx E
x@
xB
#130
0$
0+
#135
1$
1+
#140
0$
0+
#145
1$
1+
#150
0$
0+
#155
02
11
b10 6
1$
1+
bx D
1/
bx )
bx -
bx 8
bx >
1&
#160
0$
0+
#165
r165 M
1#
1;
b1011 :
1$
1+
#170
0$
0+
#175
b1010 :
1$
1+
#180
0$
0+
#185
b1001 :
1$
1+
#190
0$
0+
#195
b1000 :
1$
1+
#200
0$
0+
#205
b111 :
1$
1+
#210
0$
0+
#215
b110 :
1$
1+
#220
0$
0+
#225
b101 :
1$
1+
#230
0$
0+
#235
b100 :
1$
1+
#240
0$
0+
#245
b11 :
1$
1+
#250
0$
0+
#255
b10 :
1$
1+
#260
0$
0+
#265
1.
b1 :
1$
1+
#270
0$
0+
#275
01
b0 6
0.
b0 :
1$
1+
#280
0$
0+
#285
b1100 S
b1010 T
b1 R
b1100 O
b1010 P
b1 N
b1100 H
b1010 I
b1 G
r12 K
r285 L
1!
1"
1<
0#
0;
x.
bx :
1$
1+
#290
0$
0+
#295
1$
1+
#300
0$
0+
#305
1$
1+
#310
0$
0+
#315
1$
1+
b1100 (
b1100 ,
b1100 7
b1100 =
b1100 C
#320
0$
0+
#325
1$
1+
0/
0%
#330
0$
0+
#335
1$
1+
#340
0$
0+
#345
0.
b1xx0 :
1$
1+
b11110101 D
b1xx0 9
b1xx0 ?
b1010 )
b1010 -
b1010 8
b1010 >
#346
b1100 9
b1100 ?
b10 E
1@
0B
#350
0$
0+
#355
b1100 :
1$
1+
#360
0$
0+
#365
12
b1 6
1$
1+
10
0&
#370
0$
0+
#375
0!
0"
0<
1$
1+
#380
0$
0+
#385
1$
1+
#390
0$
0+
#395
1$
1+
#400
0$
0+
#405
1$
1+
00
bx 9
bx ?
bx (
bx ,
bx 7
bx =
bx C
1%
#406
bx E
x@
xB
#410
0$
0+
#415
1$
1+
#420
0$
0+
#425
1$
1+
#430
0$
0+
#435
02
11
b10 6
1$
1+
bx D
1/
bx )
bx -
bx 8
bx >
1&
#440
0$
0+
#445
r445 M
1#
1;
b1011 :
1$
1+
#450
0$
0+
#455
b1010 :
1$
1+
#460
0$
0+
#465
b1001 :
1$
1+
#470
0$
0+
#475
b1000 :
1$
1+
#480
0$
0+
#485
b111 :
1$
1+
#490
0$
0+
#495
b110 :
1$
1+
#500
0$
0+
#505
b101 :
1$
1+
#510
0$
0+
#515
b100 :
1$
1+
#520
0$
0+
#525
b11 :
1$
1+
#530
0$
0+
#535
b10 :
1$
1+
#540
0$
0+
#545
1.
b1 :
1$
1+
#550
0$
0+
#555
01
b0 6
0.
b0 :
1$
1+
#560
0$
0+
#565
b1111 S
b1100 T
b1111 U
b10 R
b1111 O
b1100 P
b1111 Q
b10 N
b1111 H
b1100 I
b1111 J
b10 G
r565 L
1!
1"
1<
0#
0;
x.
bx :
1$
1+
#570
0$
0+
#575
1$
1+
#580
0$
0+
#585
1$
1+
#590
0$
0+
#595
1$
1+
b1111 (
b1111 ,
b1111 7
b1111 =
b1111 C
#600
0$
0+
#605
1$
1+
0/
0%
#610
0$
0+
#615
1$
1+
#620
0$
0+
#625
0.
b11xx :
1$
1+
b11110011 D
b11xx 9
b11xx ?
b1100 )
b1100 -
b1100 8
b1100 >
#626
b1111 9
b1111 ?
b11 E
1@
0B
#630
0$
0+
#635
b1111 :
1$
1+
#640
0$
0+
#645
12
b1 6
1$
1+
10
0&
#650
0$
0+
#655
0!
0"
0<
1$
1+
#660
0$
0+
#665
1$
1+
#670
0$
0+
#675
1$
1+
#680
0$
0+
#685
1$
1+
00
bx 9
bx ?
bx (
bx ,
bx 7
bx =
bx C
1%
#686
bx E
x@
xB
#690
0$
0+
#695
1$
1+
#700
0$
0+
#705
1$
1+
#710
0$
0+
#715
02
11
b10 6
1$
1+
bx D
1/
bx )
bx -
bx 8
bx >
1&
#720
0$
0+
#725
r725 M
1#
1;
b1110 :
1$
1+
#730
0$
0+
#735
b1101 :
1$
1+
#740
0$
0+
#745
b1100 :
1$
1+
#750
0$
0+
#755
b1011 :
1$
1+
#760
0$
0+
#765
b1010 :
1$
1+
#770
0$
0+
#775
b1001 :
1$
1+
#780
0$
0+
#785
b1000 :
1$
1+
#790
0$
0+
#795
b111 :
1$
1+
#800
0$
0+
#805
b110 :
1$
1+
#810
0$
0+
#815
b101 :
1$
1+
#820
0$
0+
#825
b100 :
1$
1+
#830
0$
0+
#835
b11 :
1$
1+
#840
0$
0+
#845
b10 :
1$
1+
#850
0$
0+
#855
1.
b1 :
1$
1+
#860
0$
0+
#865
01
0.
b0 :
b0 6
1$
1+
#870
0$
0+
#875
b1100 H
b10100 I
b10100 J
b11 G
r15 K
r875 L
b1100 S
b10100 T
b10100 U
b11 R
b1100 O
b10100 P
b10100 Q
b11 N
x.
bx :
0#
0;
1!
1"
1<
1$
1+
#880
0$
0+
#885
1$
1+
#890
0$
0+
#895
1$
1+
#900
0$
0+
#905
1$
1+
b1100 (
b1100 ,
b1100 7
b1100 =
b1100 C
#910
0$
0+
#915
1$
1+
0/
0%
#920
0$
0+
#925
1$
1+
#930
0$
0+
#935
0.
b0xx100 :
1$
1+
b11101011 D
b0xx100 9
b0xx100 ?
b10100 )
b10100 -
b10100 8
b10100 >
#936
b10100 9
b10100 ?
b11111000 E
0@
0B
#940
0$
0+
#945
b10100 :
1$
1+
#950
0$
0+
#955
12
b1 6
1$
1+
10
0&
#960
0$
0+
#965
0!
0"
0<
1$
1+
#970
0$
0+
#975
1$
1+
#980
0$
0+
#985
1$
1+
#990
0$
0+
#995
1$
1+
00
bx (
bx ,
bx 7
bx =
bx C
1%
#996
bx 9
bx ?
bx E
x@
xB
#1000
0$
0+
#1005
1$
1+
#1010
0$
0+
#1015
1$
1+
#1020
0$
0+
#1025
02
11
b10 6
1$
1+
bx D
1/
bx )
bx -
bx 8
bx >
1&
#1030
0$
0+
#1035
r1035 M
b10011 :
1#
1;
1$
1+
#1040
0$
0+
#1045
b10010 :
1$
1+
#1050
0$
0+
#1055
b10001 :
1$
1+
#1060
0$
0+
#1065
b10000 :
1$
1+
#1070
0$
0+
#1075
b1111 :
1$
1+
#1080
0$
0+
#1085
b1110 :
1$
1+
#1090
0$
0+
#1095
b1101 :
1$
1+
#1100
0$
0+
#1105
b1100 :
1$
1+
#1110
0$
0+
#1115
b1011 :
1$
1+
#1120
0$
0+
#1125
b1010 :
1$
1+
#1130
0$
0+
#1135
b1001 :
1$
1+
#1140
0$
0+
#1145
b1000 :
1$
1+
#1150
0$
0+
#1155
b111 :
1$
1+
#1160
0$
0+
#1165
b110 :
1$
1+
#1170
0$
0+
#1175
b101 :
1$
1+
#1180
0$
0+
#1185
b100 :
1$
1+
#1190
0$
0+
#1195
b11 :
1$
1+
#1200
0$
0+
#1205
b10 :
1$
1+
#1210
0$
0+
#1215
1.
b1 :
1$
1+
#1220
0$
0+
#1225
01
0.
b0 :
b0 6
1$
1+
#1230
0$
0+
#1235
b101 H
b1111 I
b1111 J
b100 G
r20 K
r1235 L
b101 S
b1111 T
b1111 U
b100 R
b101 O
b1111 P
b1111 Q
b100 N
x.
bx :
0#
0;
1!
1"
1<
1$
1+
#1240
0$
0+
#1245
1$
1+
#1250
0$
0+
#1255
1$
1+
#1260
0$
0+
#1265
1$
1+
b101 (
b101 ,
b101 7
b101 =
b101 C
#1270
0$
0+
#1275
1$
1+
0/
0%
#1280
0$
0+
#1285
1$
1+
#1290
0$
0+
#1295
0.
b0x1x1 :
1$
1+
b11110000 D
b0x1x1 9
b0x1x1 ?
b1111 )
b1111 -
b1111 8
b1111 >
#1296
b1111 9
b1111 ?
b11110110 E
0@
0B
#1300
0$
0+
#1305
b1111 :
1$
1+
#1310
0$
0+
#1315
12
b1 6
1$
1+
10
0&
#1320
0$
0+
#1325
0!
0"
0<
1$
1+
#1330
0$
0+
#1335
1$
1+
#1340
0$
0+
#1345
1$
1+
#1350
0$
0+
#1355
1$
1+
00
bx (
bx ,
bx 7
bx =
bx C
1%
#1356
bx 9
bx ?
bx E
x@
xB
#1360
0$
0+
#1365
1$
1+
#1370
0$
0+
#1375
1$
1+
#1380
0$
0+
#1385
02
11
b10 6
1$
1+
bx D
1/
bx )
bx -
bx 8
bx >
1&
#1390
0$
0+
#1395
r1395 M
b1110 :
1#
1;
1$
1+
#1400
0$
0+
#1405
b1101 :
1$
1+
#1410
0$
0+
#1415
b1100 :
1$
1+
#1420
0$
0+
#1425
b1011 :
1$
1+
#1430
0$
0+
#1435
b1010 :
1$
1+
#1440
0$
0+
#1445
b1001 :
1$
1+
#1450
0$
0+
#1455
b1000 :
1$
1+
#1460
0$
0+
#1465
b111 :
1$
1+
#1470
0$
0+
#1475
b110 :
1$
1+
#1480
0$
0+
#1485
b101 :
1$
1+
#1490
0$
0+
#1495
b100 :
1$
1+
#1500
0$
0+
#1505
b11 :
1$
1+
#1510
0$
0+
#1515
b10 :
1$
1+
#1520
0$
0+
#1525
1.
b1 :
1$
1+
#1530
0$
0+
#1535
01
b0 6
0.
b0 :
1$
1+
#1540
0$
0+
#1545
b1111 S
b1010 T
b101 R
b1111 O
b1010 P
b101 N
b1111 H
b1010 I
b101 G
r15 K
r1545 L
1!
1"
1<
0#
0;
x.
bx :
1$
1+
#1550
0$
0+
#1555
1$
1+
#1560
0$
0+
#1565
1$
1+
#1570
0$
0+
#1575
1$
1+
b1111 (
b1111 ,
b1111 7
b1111 =
b1111 C
#1580
0$
0+
#1585
1$
1+
0/
0%
#1590
0$
0+
#1595
1$
1+
#1600
0$
0+
#1605
0.
b1x1x :
1$
1+
b11110101 D
b1x1x 9
b1x1x ?
b1010 )
b1010 -
b1010 8
b1010 >
#1606
b1111 9
b1111 ?
b101 E
1@
0B
#1610
0$
0+
#1615
b1111 :
1$
1+
#1620
0$
0+
#1625
12
b1 6
1$
1+
10
0&
#1630
0$
0+
#1635
0!
0"
0<
1$
1+
#1640
0$
0+
#1645
1$
1+
#1650
0$
0+
#1655
1$
1+
#1660
0$
0+
#1665
1$
1+
00
bx 9
bx ?
bx (
bx ,
bx 7
bx =
bx C
1%
#1666
bx E
x@
xB
#1670
0$
0+
#1675
1$
1+
#1680
0$
0+
#1685
1$
1+
#1690
0$
0+
#1695
02
11
b10 6
1$
1+
bx D
1/
bx )
bx -
bx 8
bx >
1&
#1700
0$
0+
#1705
r1705 M
1#
1;
b1110 :
1$
1+
#1710
0$
0+
#1715
b1101 :
1$
1+
#1720
0$
0+
#1725
b1100 :
1$
1+
#1730
0$
0+
#1735
b1011 :
1$
1+
#1740
0$
0+
#1745
b1010 :
1$
1+
#1750
0$
0+
#1755
b1001 :
1$
1+
#1760
0$
0+
#1765
b1000 :
1$
1+
#1770
0$
0+
#1775
b111 :
1$
1+
#1780
0$
0+
#1785
b110 :
1$
1+
#1790
0$
0+
#1795
b101 :
1$
1+
#1800
0$
0+
#1805
b100 :
1$
1+
#1810
0$
0+
#1815
b11 :
1$
1+
#1820
0$
0+
#1825
b10 :
1$
1+
#1830
0$
0+
#1835
1.
b1 :
1$
1+
#1840
0$
0+
#1845
01
0.
b0 :
b0 6
1$
1+
#1850
0$
0+
#1855
b1111 I
b110 G
r1855 L
b1111 T
b110 R
b1111 P
b110 N
x.
bx :
0#
0;
1!
1"
1<
1$
1+
#1860
0$
0+
#1865
1$
1+
#1870
0$
0+
#1875
1$
1+
#1880
0$
0+
#1885
1$
1+
b1111 (
b1111 ,
b1111 7
b1111 =
b1111 C
#1890
0$
0+
#1895
1$
1+
0/
0%
#1900
0$
0+
#1905
1$
1+
#1910
0$
0+
#1915
0.
b1111 :
1$
1+
b11110000 D
b1111 9
b1111 ?
b1111 )
b1111 -
b1111 8
b1111 >
#1916
b0 E
1@
0B
#1920
0$
0+
#1925
1$
1+
#1930
0$
0+
#1935
12
b1 6
1$
1+
10
0&
#1940
0$
0+
#1945
0!
0"
0<
1$
1+
#1950
0$
0+
#1955
1$
1+
#1960
0$
0+
#1965
1$
1+
#1970
0$
0+
#1975
1$
1+
00
bx 9
bx ?
bx (
bx ,
bx 7
bx =
bx C
1%
#1976
bx E
x@
xB
#1980
0$
0+
#1985
1$
1+
#1990
0$
0+
#1995
1$
1+
#2000
0$
0+
#2005
02
11
b10 6
1$
1+
bx D
1/
bx )
bx -
bx 8
bx >
1&
#2010
0$
0+
#2015
r2015 M
b1110 :
1#
1;
1$
1+
#2020
0$
0+
#2025
b1101 :
1$
1+
#2030
0$
0+
#2035
b1100 :
1$
1+
#2040
0$
0+
#2045
b1011 :
1$
1+
#2050
0$
0+
#2055
b1010 :
1$
1+
#2060
0$
0+
#2065
b1001 :
1$
1+
#2070
0$
0+
#2075
b1000 :
1$
1+
#2080
0$
0+
#2085
b111 :
1$
1+
#2090
0$
0+
#2095
b110 :
1$
1+
#2100
0$
0+
#2105
b101 :
1$
1+
#2110
0$
0+
#2115
b100 :
1$
1+
#2120
0$
0+
#2125
b11 :
1$
1+
#2130
0$
0+
#2135
b10 :
1$
1+
#2140
0$
0+
#2145
1.
b1 :
1$
1+
#2150
0$
0+
#2155
01
b0 6
0.
b0 :
1$
1+
#2160
0$
0+
#2165
b10100 T
b10100 U
b111 R
b10100 P
b10100 Q
b111 N
b10100 I
b10100 J
b111 G
r2165 L
1!
1"
1<
0#
0;
x.
bx :
1$
1+
#2170
0$
0+
#2175
1$
1+
#2180
0$
0+
#2185
1$
1+
#2190
0$
0+
#2195
1$
1+
b1111 (
b1111 ,
b1111 7
b1111 =
b1111 C
#2200
0$
0+
#2205
1$
1+
0/
0%
#2210
0$
0+
#2215
1$
1+
#2220
0$
0+
#2225
0.
b0xx1xx :
1$
1+
b11101011 D
b0xx1xx 9
b0xx1xx ?
b10100 )
b10100 -
b10100 8
b10100 >
#2226
b10100 9
b10100 ?
b11111011 E
0@
0B
#2230
0$
0+
#2235
b10100 :
1$
1+
#2240
0$
0+
#2245
12
b1 6
1$
1+
10
0&
#2250
0$
0+
#2255
0!
0"
0<
1$
1+
#2260
0$
0+
#2265
1$
1+
#2270
0$
0+
#2275
1$
1+
#2280
0$
0+
#2285
1$
1+
00
bx (
bx ,
bx 7
bx =
bx C
1%
#2286
bx 9
bx ?
bx E
x@
xB
#2290
0$
0+
#2295
1$
1+
#2300
0$
0+
#2305
1$
1+
#2310
0$
0+
#2315
02
11
b10 6
1$
1+
bx D
1/
bx )
bx -
bx 8
bx >
1&
#2320
0$
0+
#2325
r2325 M
1#
1;
b10011 :
1$
1+
#2330
0$
0+
#2335
b10010 :
1$
1+
#2340
0$
0+
#2345
b10001 :
1$
1+
#2350
0$
0+
#2355
b10000 :
1$
1+
#2360
0$
0+
#2365
b1111 :
1$
1+
#2370
0$
0+
#2375
b1110 :
1$
1+
#2380
0$
0+
#2385
b1101 :
1$
1+
#2390
0$
0+
#2395
b1100 :
1$
1+
#2400
0$
0+
#2405
b1011 :
1$
1+
#2410
0$
0+
#2415
b1010 :
1$
1+
#2420
0$
0+
#2425
b1001 :
1$
1+
#2430
0$
0+
#2435
b1000 :
1$
1+
#2440
0$
0+
#2445
b111 :
1$
1+
#2450
0$
0+
#2455
b110 :
1$
1+
#2460
0$
0+
#2465
b101 :
1$
1+
#2470
0$
0+
#2475
b100 :
1$
1+
#2480
0$
0+
#2485
b11 :
1$
1+
#2490
0$
0+
#2495
b10 :
1$
1+
#2500
0$
0+
#2505
1.
b1 :
1$
1+
#2510
0$
0+
#2515
01
b0 6
0.
b0 :
1$
1+
#2520
0$
0+
#2525
b101 S
b10010 T
b10010 U
b1000 R
b101 O
b10010 P
b10010 Q
b1000 N
b101 H
b10010 I
b10010 J
b1000 G
r20 K
r2525 L
1!
1"
1<
0#
0;
x.
bx :
1$
1+
#2530
0$
0+
#2535
1$
1+
#2540
0$
0+
#2545
1$
1+
#2550
0$
0+
#2555
1$
1+
b101 (
b101 ,
b101 7
b101 =
b101 C
#2560
0$
0+
#2565
1$
1+
0/
0%
#2570
0$
0+
#2575
1$
1+
#2580
0$
0+
#2585
b0x0xxx :
1$
1+
b11101101 D
b0x0xxx 9
b0x0xxx ?
b10010 )
b10010 -
b10010 8
b10010 >
#2586
b10010 9
b10010 ?
b11110011 E
0@
0B
#2590
0$
0+
#2595
0.
b10010 :
1$
1+
#2600
0$
0+
#2605
12
b1 6
1$
1+
10
0&
#2610
0$
0+
#2615
0!
0"
0<
1$
1+
#2620
0$
0+
#2625
1$
1+
#2630
0$
0+
#2635
1$
1+
#2640
0$
0+
#2645
1$
1+
00
bx (
bx ,
bx 7
bx =
bx C
1%
#2646
bx 9
bx ?
bx E
x@
xB
#2650
0$
0+
#2655
1$
1+
#2660
0$
0+
#2665
1$
1+
#2670
0$
0+
#2675
02
11
b10 6
1$
1+
bx D
1/
bx )
bx -
bx 8
bx >
1&
#2680
0$
0+
#2685
r2685 M
1#
1;
b10001 :
1$
1+
#2690
0$
0+
#2695
b10000 :
1$
1+
#2700
0$
0+
#2705
b1111 :
1$
1+
#2710
0$
0+
#2715
b1110 :
1$
1+
#2720
0$
0+
#2725
b1101 :
1$
1+
#2730
0$
0+
#2735
b1100 :
1$
1+
#2740
0$
0+
#2745
b1011 :
1$
1+
#2750
0$
0+
#2755
b1010 :
1$
1+
#2760
0$
0+
#2765
b1001 :
1$
1+
#2770
0$
0+
#2775
b1000 :
1$
1+
#2780
0$
0+
#2785
b111 :
1$
1+
#2790
0$
0+
#2795
b110 :
1$
1+
#2800
0$
0+
#2805
b101 :
1$
1+
#2810
0$
0+
#2815
b100 :
1$
1+
#2820
0$
0+
#2825
b11 :
1$
1+
#2830
0$
0+
#2835
b10 :
1$
1+
#2840
0$
0+
#2845
1.
b1 :
1$
1+
#2850
0$
0+
#2855
01
b0 6
0.
b0 :
1$
1+
#2860
0$
0+
#2865
b10010 S
b1010 T
b1001 R
b10010 O
b1010 P
b1001 N
b10010 H
b1010 I
b1001 G
r18 K
r2865 L
1!
1"
1<
0#
0;
x.
bx :
1$
1+
#2870
0$
0+
#2875
1$
1+
#2880
0$
0+
#2885
1$
1+
#2890
0$
0+
#2895
1$
1+
b10010 (
b10010 ,
b10010 7
b10010 =
b10010 C
#2900
0$
0+
#2905
1$
1+
0/
0%
#2910
0$
0+
#2915
1$
1+
#2920
0$
0+
#2925
0.
b0xx010 :
1$
1+
b11110101 D
b0xx010 9
b0xx010 ?
b1010 )
b1010 -
b1010 8
b1010 >
#2926
b10010 9
b10010 ?
b1000 E
1@
0B
#2930
0$
0+
#2935
b10010 :
1$
1+
#2940
0$
0+
#2945
12
b1 6
1$
1+
10
0&
#2950
0$
0+
#2955
0!
0"
0<
1$
1+
#2960
0$
0+
#2965
1$
1+
#2970
0$
0+
#2975
1$
1+
#2980
0$
0+
#2985
1$
1+
00
bx 9
bx ?
bx (
bx ,
bx 7
bx =
bx C
1%
#2986
bx E
x@
xB
#2990
0$
0+
#2995
1$
1+
#3000
0$
0+
#3005
1$
1+
#3010
0$
0+
#3015
02
11
b10 6
1$
1+
bx D
1/
bx )
bx -
bx 8
bx >
1&
#3020
0$
0+
#3025
r3025 M
1#
1;
b10001 :
1$
1+
#3030
0$
0+
#3035
b10000 :
1$
1+
#3040
0$
0+
#3045
b1111 :
1$
1+
#3050
0$
0+
#3055
b1110 :
1$
1+
#3060
0$
0+
#3065
b1101 :
1$
1+
#3070
0$
0+
#3075
b1100 :
1$
1+
#3080
0$
0+
#3085
b1011 :
1$
1+
#3090
0$
0+
#3095
b1010 :
1$
1+
#3100
0$
0+
#3105
b1001 :
1$
1+
#3110
0$
0+
#3115
b1000 :
1$
1+
#3120
0$
0+
#3125
b111 :
1$
1+
#3130
0$
0+
#3135
b110 :
1$
1+
#3140
0$
0+
#3145
b101 :
1$
1+
#3150
0$
0+
#3155
b100 :
1$
1+
#3160
0$
0+
#3165
b11 :
1$
1+
#3170
0$
0+
#3175
b10 :
1$
1+
#3180
0$
0+
#3185
1.
b1 :
1$
1+
#3190
0$
0+
#3195
01
b0 6
0.
b0 :
1$
1+
#3200
0$
0+
#3205
b1111 S
b10010 T
b1010 R
b1111 O
b10010 P
b1010 N
b1111 H
b10010 I
b1010 G
r3205 L
1!
1"
1<
0#
0;
x.
bx :
1$
1+
#3210
0$
0+
#3215
1$
1+
#3220
0$
0+
#3225
1$
1+
#3230
0$
0+
#3235
1$
1+
b1111 (
b1111 ,
b1111 7
b1111 =
b1111 C
#3240
0$
0+
#3245
1$
1+
0/
0%
#3250
0$
0+
#3255
1$
1+
#3260
0$
0+
#3265
0.
b0xxx1x :
1$
1+
b11101101 D
b0xxx1x 9
b0xxx1x ?
b10010 )
b10010 -
b10010 8
b10010 >
#3266
b10010 9
b10010 ?
b11111101 E
0@
0B
#3270
0$
0+
#3275
b10010 :
1$
1+
#3280
0$
0+
#3285
12
b1 6
1$
1+
10
0&
#3290
0$
0+
#3295
0!
0"
0<
1$
1+
#3300
0$
0+
#3305
1$
1+
#3310
0$
0+
#3315
1$
1+
#3320
0$
0+
#3325
1$
1+
00
bx (
bx ,
bx 7
bx =
bx C
1%
#3326
bx 9
bx ?
bx E
x@
xB
#3330
0$
0+
#3335
1$
1+
#3340
0$
0+
#3345
1$
1+
#3350
0$
0+
#3355
02
11
b10 6
1$
1+
bx D
1/
bx )
bx -
bx 8
bx >
1&
#3360
0$
0+
#3365
r3365 M
1#
1;
b10001 :
1$
1+
#3370
0$
0+
#3375
b10000 :
1$
1+
#3380
0$
0+
#3385
b1111 :
1$
1+
#3390
0$
0+
#3395
b1110 :
1$
1+
#3400
0$
0+
#3405
b1101 :
1$
1+
#3410
0$
0+
#3415
b1100 :
1$
1+
#3420
0$
0+
#3425
b1011 :
1$
1+
#3430
0$
0+
#3435
b1010 :
1$
1+
#3440
0$
0+
#3445
b1001 :
1$
1+
#3450
0$
0+
#3455
b1000 :
1$
1+
#3460
0$
0+
#3465
b111 :
1$
1+
#3470
0$
0+
#3475
b110 :
1$
1+
#3480
0$
0+
#3485
b101 :
1$
1+
#3490
0$
0+
#3495
b100 :
1$
1+
#3500
0$
0+
#3505
b11 :
1$
1+
#3510
0$
0+
#3515
b10 :
1$
1+
#3520
0$
0+
#3525
1.
b1 :
1$
1+
#3530
0$
0+
#3535
01
b0 6
0.
b0 :
1$
1+
#3540
0$
0+
#3545
b10010 S
b10100 T
b10100 U
b1011 R
b10010 O
b10100 P
b10100 Q
b1011 N
b10010 H
b10100 I
b10100 J
b1011 G
r3545 L
1!
1"
1<
0#
0;
x.
bx :
1$
1+
#3550
0$
0+
#3555
1$
1+
#3560
0$
0+
#3565
1$
1+
#3570
0$
0+
#3575
1$
1+
b10010 (
b10010 ,
b10010 7
b10010 =
b10010 C
#3580
0$
0+
#3585
1$
1+
0/
0%
#3590
0$
0+
#3595
1$
1+
#3600
0$
0+
#3605
0.
b10xx0 :
1$
1+
b11101011 D
b10xx0 9
b10xx0 ?
b10100 )
b10100 -
b10100 8
b10100 >
#3606
b10100 9
b10100 ?
b11111110 E
0@
0B
#3610
0$
0+
#3615
b10100 :
1$
1+
#3620
0$
0+
#3625
12
b1 6
1$
1+
10
0&
#3630
0$
0+
#3635
0!
0"
0<
1$
1+
#3640
0$
0+
#3645
1$
1+
#3650
0$
0+
#3655
1$
1+
#3660
0$
0+
#3665
1$
1+
00
bx (
bx ,
bx 7
bx =
bx C
1%
#3666
bx 9
bx ?
bx E
x@
xB
#3670
0$
0+
#3675
1$
1+
#3680
0$
0+
#3685
1$
1+
#3690
0$
0+
#3695
02
11
b10 6
1$
1+
bx D
1/
bx )
bx -
bx 8
bx >
1&
#3700
0$
0+
#3705
r3705 M
1#
1;
b10011 :
1$
1+
#3710
0$
0+
#3715
b10010 :
1$
1+
#3720
0$
0+
#3725
b10001 :
1$
1+
#3730
0$
0+
#3735
b10000 :
1$
1+
#3740
0$
0+
#3745
b1111 :
1$
1+
#3750
0$
0+
#3755
b1110 :
1$
1+
#3760
0$
0+
#3765
b1101 :
1$
1+
#3770
0$
0+
#3775
b1100 :
1$
1+
#3780
0$
0+
#3785
b1011 :
1$
1+
#3790
0$
0+
#3795
b1010 :
1$
1+
#3800
0$
0+
#3805
b1001 :
1$
1+
#3810
0$
0+
#3815
b1000 :
1$
1+
#3820
0$
0+
#3825
b111 :
1$
1+
#3830
0$
0+
#3835
b110 :
1$
1+
#3840
0$
0+
#3845
b101 :
1$
1+
#3850
0$
0+
#3855
b100 :
1$
1+
#3860
0$
0+
#3865
b11 :
1$
1+
#3870
0$
0+
#3875
b10 :
1$
1+
#3880
0$
0+
#3885
1.
b1 :
1$
1+
#3890
0$
0+
#3895
01
b0 6
0.
b0 :
1$
1+
#3900
0$
0+
#3905
b101 S
b10101 T
b10101 U
b1100 R
b101 O
b10101 P
b10101 Q
b1100 N
b101 H
b10101 I
b10101 J
b1100 G
r20 K
r3905 L
1!
1"
1<
0#
0;
x.
bx :
1$
1+
#3910
0$
0+
#3915
1$
1+
#3920
0$
0+
#3925
1$
1+
#3930
0$
0+
#3935
1$
1+
b101 (
b101 ,
b101 7
b101 =
b101 C
#3940
0$
0+
#3945
1$
1+
0/
0%
#3950
0$
0+
#3955
1$
1+
#3960
0$
0+
