reti_logiche/esami/2025-01-24/waveform.vcd
$date
	Wed Apr  2 21:18:33 2025
$end
$version
	Icarus Verilog
$end
$timescale
	1s
$end
$scope module comp_nat $end
$var wire 2 ! a [1:0] $end
$var wire 2 " b [1:0] $end
$var wire 1 # min $end
$var wire 1 $ eq $end
$var parameter 32 % N $end
$upscope $end
$scope module diff $end
$var wire 1 & b_in $end
$var wire 8 ' x [7:0] $end
$var wire 8 ( y [7:0] $end
$var wire 1 ) ow $end
$var wire 8 * d [7:0] $end
$var wire 1 + b_out $end
$var parameter 32 , N $end
$upscope $end
$scope module mul_add_nat $end
$var wire 2 - c [1:0] $end
$var wire 2 . x [1:0] $end
$var wire 2 / y [1:0] $end
$var wire 4 0 m [3:0] $end
$var parameter 32 1 M $end
$var parameter 32 2 N $end
$upscope $end
$scope module testbench $end
$var wire 1 3 soc2 $end
$var wire 1 4 soc1 $end
$var wire 1 5 out $end
$var wire 1 6 clock $end
$var reg 1 7 eoc1 $end
$var reg 1 8 eoc2 $end
$var reg 1 9 error $end
$var reg 1 : reset_ $end
$var reg 8 ; x1 [7:0] $end
$var reg 8 < x2 [7:0] $end
$scope function get_testcase $end
$upscope $end
$scope module clk $end
$var wire 1 6 clock $end
$var parameter 32 = HALF_PERIOD $end
$var reg 1 > CLOCK $end
$upscope $end
$scope module dut $end
$var wire 1 6 clock $end
$var wire 1 7 eoc1 $end
$var wire 1 8 eoc2 $end
$var wire 1 5 out $end
$var wire 1 : reset_ $end
$var wire 1 4 soc1 $end
$var wire 1 3 soc2 $end
$var wire 8 ? x1 [7:0] $end
$var wire 8 @ x2 [7:0] $end
$var wire 8 A m [7:0] $end
$var parameter 32 B S0 $end
$var parameter 32 C S1 $end
$var parameter 32 D S2 $end
$var parameter 32 E S3 $end
$var parameter 32 F S4 $end
$var reg 8 G COUNT [7:0] $end
$var reg 1 H OUT $end
$var reg 1 I SOC $end
$var reg 3 J STAR [2:0] $end
$scope module me $end
$var wire 8 K x1 [7:0] $end
$var wire 8 L x2 [7:0] $end
$var wire 9 M s [8:0] $end
$var wire 8 N media [7:0] $end
$scope module a $end
$var wire 1 O c_in $end
$var wire 1 P ow $end
$var wire 8 Q x [7:0] $end
$var wire 8 R y [7:0] $end
$var wire 8 S s [7:0] $end
$var wire 1 T c_out $end
$var parameter 32 U N $end
$upscope $end
$upscope $end
$upscope $end
$scope fork f $end
$scope begin consumer $end
$var reg 8 V expected_result [7:0] $end
$var reg 5 W i [4:0] $end
$var reg 8 X v1 [7:0] $end
$var reg 8 Y v2 [7:0] $end
$var real 1 Z diff $end
$var real 1 [ t_end $end
$var real 1 \ t_start $end
$upscope $end
$scope begin producer_1 $end
$var reg 8 ] expected_result [7:0] $end
$var reg 5 ^ i [4:0] $end
$var reg 8 _ v1 [7:0] $end
$var reg 8 ` v2 [7:0] $end
$upscope $end
$scope begin producer_2 $end
$var reg 8 a expected_result [7:0] $end
$var reg 5 b i [4:0] $end
$var reg 8 c v1 [7:0] $end
$var reg 8 d v2 [7:0] $end
$upscope $end
$upscope $end
$upscope $end
$enddefinitions $end
$comment Show the parameter values. $end
$dumpall
b1000 U
b100 F
b11 E
b10 D
b1 C
b0 B
b101 =
b10 2
b10 1
b1000 ,
b10 %
$end
#0
$dumpvars
bx d
bx c
bx b
bx a
bx `
bx _
bx ^
bx ]
r0 \
r0 [
r0 Z
bx Y
bx X
bx W
bx V
xT
bx S
bx R
bx Q
xP
0O
bx N
bx M
bx L
bx K
b0 J
0I
0H
b0 G
bx A
bx @
bx ?
0>
bx <
bx ;
0:
09
18
17
06
05
04
03
bx 0
bz /
bz .
bz -
x+
bx *
x)
bz (
bz '
z&
x$
x#
bz "
bz !
$end
#5
13
14
1I
16
1>
b1010 _
b10100 `
b1111 ]
b0 ^
b1010 c
b10100 d
b1111 a
b0 b
b1010 X
b10100 Y
b1111 V
b0 W
1:
#10
06
0>
#15
16
1>
07
#20
06
0>
#25
b1 J
16
1>
08
#30
06
0>
#35
bx G
03
04
0I
16
1>
#40
06
0>
#45
16
1>
b1010 ;
b1010 ?
b1010 K
b1010 Q
#50
06
0>
#55
16
1>
b10100 <
b10100 @
b10100 L
b10100 R
#56
b1111 A
b1111 N
b11110 S
b11110 M
0T
b10110 _
b1011 `
b10000 ]
b1 ^
17
#57
0P
#60
06
0>
#65
b1111 G
16
1>
#66
b10110 c
b1011 d
b10000 a
b1 b
18
#70
06
0>
#75
b10 J
16
1>
#80
06
0>
#85
b11 J
16
1>
#90
06
0>
#95
r95 \
b1110 G
15
1H
16
1>
#100
06
0>
#105
b1101 G
16
1>
#110
06
0>
#115
b1100 G
16
1>
#120
06
0>
#125
b1011 G
16
1>
#130
06
0>
#135
b1010 G
16
1>
#140
06
0>
#145
b1001 G
16
1>
#150
06
0>
#155
b1000 G
16
1>
#160
06
0>
#165
b111 G
16
1>
#170
06
0>
#175
b110 G
16
1>
#180
06
0>
#185
b101 G
16
1>
#190
06
0>
#195
b100 G
16
1>
#200
06
0>
#205
b11 G
16
1>
#210
06
0>
#215
b10 G
16
1>
#220
06
0>
#225
b1 G
16
1>
#230
06
0>
#235
b0 J
b0 G
16
1>
#240
06
0>
#245
bx <
bx @
bx L
bx R
bx ;
bx ?
bx K
bx Q
b10110 X
b1011 Y
b10000 V
b1 W
r15 Z
r245 [
13
14
1I
05
0H
16
1>
#246
bx A
bx N
bx S
bx M
xT
xP
#250
06
0>
#255
16
1>
07
#260
06
0>
#265
b1 J
16
1>
08
#270
06
0>
#275
bx G
03
04
0I
16
1>
#280
06
0>
#285
16
1>
b10110 ;
b10110 ?
b10110 K
b10110 Q
#290
06
0>
#295
16
1>
b1011 <
b1011 @
b1011 L
b1011 R
#296
b10000 A
b10000 N
b100001 S
b100001 M
0T
b1100 _
b11000 `
b10010 ]
b10 ^
17
#297
0P
#300
06
0>
#305
b10000 G
16
1>
#306
b1100 c
b11000 d
b10010 a
b10 b
18
#310
06
0>
#315
b10 J
16
1>
#320
06
0>
#325
b11 J
16
1>
#330
06
0>
#335
r335 \
b1111 G
15
1H
16
1>
#340
06
0>
#345
b1110 G
16
1>
#350
06
0>
#355
b1101 G
16
1>
#360
06
0>
#365
b1100 G
16
1>
#370
06
0>
#375
b1011 G
16
1>
#380
06
0>
#385
b1010 G
16
1>
#390
06
0>
#395
b1001 G
16
1>
#400
06
0>
#405
b1000 G
16
1>
#410
06
0>
#415
b111 G
16
1>
#420
06
0>
#425
b110 G
16
1>
#430
06
0>
#435
b101 G
16
1>
#440
06
0>
#445
b100 G
16
1>
#450
06
0>
#455
b11 G
16
1>
#460
06
0>
#465
b10 G
16
1>
#470
06
0>
#475
b1 G
16
1>
#480
06
0>
#485
b0 J
b0 G
16
1>
#490
06
0>
#495
bx <
bx @
bx L
bx R
bx ;
bx ?
bx K
bx Q
b1100 X
b11000 Y
b10010 V
b10 W
r16 Z
r495 [
13
14
1I
05
0H
16
1>
#496
bx A
bx N
bx S
bx M
xT
xP
#500
06
0>
#505
16
1>
07
#510
06
0>
#515
b1 J
16
1>
08
#520
06
0>
#525
bx G
03
04
0I
16
1>
#530
06
0>
#535
16
1>
b1100 ;
b1100 ?
b1100 K
b1100 Q
#540
06
0>
#545
16
1>
b11000 <
b11000 @
b11000 L
b11000 R
#546
b10010 A
b10010 N
b100100 S
b100100 M
0T
b11010 _
b1101 `
b10011 ]
b11 ^
17
#547
0P
#550
06
0>
#555
b10010 G
16
1>
#556
b11010 c
b1101 d
b10011 a
b11 b
18
#560
06
0>
#565
b10 J
16
1>
#570
06
0>
#575
b11 J
16
1>
#580
06
0>
#585
r585 \
b10001 G
15
1H
16
1>
#590
06
0>
#595
b10000 G
16
1>
#600
06
0>
#605
b1111 G
16
1>
#610
06
0>
#615
b1110 G
16
1>
#620
06
0>
#625
b1101 G
16
1>
#630
06
0>
#635
b1100 G
16
1>
#640
06
0>
#645
b1011 G
16
1>
#650
06
0>
#655
b1010 G
16
1>
#660
06
0>
#665
b1001 G
16
1>
#670
06
0>
#675
b1000 G
16
1>
#680
06
0>
#685
b111 G
16
1>
#690
06
0>
#695
b110 G
16
1>
#700
06
0>
#705
b101 G
16
1>
#710
06
0>
#715
b100 G
16
1>
#720
06
0>
#725
b11 G
16
1>
#730
06
0>
#735
b10 G
16
1>
#740
06
0>
#745
b1 G
16
1>
#750
06
0>
#755
b0 J
b0 G
16
1>
#760
06
0>
#765
bx <
bx @
bx L
bx R
bx ;
bx ?
bx K
bx Q
b11010 X
b1101 Y
b10011 V
b11 W
r18 Z
r765 [
13
14
1I
05
0H
16
1>
#766
bx A
bx N
bx S
bx M
xT
xP
#770
06
0>
#775
16
1>
07
#780
06
0>
#785
b1 J
16
1>
08
#790
06
0>
#795
bx G
03
04
0I
16
1>
#800
06
0>
#805
16
1>
b11010 ;
b11010 ?
b11010 K
b11010 Q
#810
06
0>
#815
16
1>
b1101 <
b1101 @
b1101 L
b1101 R
#816
b10011 A
b10011 N
b100111 S
b100111 M
0T
b0 _
b0 `
b0 ]
b100 ^
17
#817
0P
#820
06
0>
#825
b10011 G
16
1>
#826
b0 c
b0 d
b0 a
b100 b
18
#830
06
0>
#835
b10 J
16
1>
#840
06
0>
#845
b11 J
16
1>
#850
06
0>
#855
r855 \
b10010 G
15
1H
16
1>
#860
06
0>
#865
b10001 G
16
1>
#870
06
0>
#875
b10000 G
16
1>
#880
06
0>
#885
b1111 G
16
1>
#890
06
0>
#895
b1110 G
16
1>
#900
06
0>
#905
b1101 G
16
1>
#910
06
0>
#915
b1100 G
16
1>
#920
06
0>
#925
b1011 G
16
1>
#930
06
0>
#935
b1010 G
16
1>
#940
06
0>
#945
b1001 G
16
1>
#950
06
0>
#955
b1000 G
16
1>
#960
06
0>
#965
b111 G
16
1>
#970
06
0>
#975
b110 G
16
1>
#980
06
0>
#985
b101 G
16
1>
#990
06
0>
#995
b100 G
16
1>
#1000
06
0>
#1005
b11 G
16
1>
#1010
06
0>
#1015
b10 G
16
1>
#1020
06
0>
#1025
b1 G
16
1>
#1030
06
0>
#1035
b0 J
b0 G
16
1>
#1040
06
0>
#1045
bx <
bx @
bx L
bx R
bx ;
bx ?
bx K
bx Q
b11110 X
b1111 Y
b10110 V
b101 W
r19 Z
r1045 [
13
14
1I
05
0H
16
1>
#1046
bx A
bx N
bx S
bx M
xT
xP
#1050
06
0>
#1055
16
1>
07
#1060
06
0>
#1065
b1 J
16
1>
08
#1070
06
0>
#1075
bx G
03
04
0I
16
1>
#1080
06
0>
#1085
16
1>
b0 ;
b0 ?
b0 K
b0 Q
#1090
06
0>
#1095
16
1>
b0 <
b0 @
b0 L
b0 R
#1096
b0 A
b0 N
b0 S
b0 M
0T
b11110 _
b1111 `
b10110 ]
b101 ^
17
#1097
0P
#1100
06
0>
#1105
b0 G
16
1>
#1106
b11110 c
b1111 d
b10110 a
b101 b
18
#1110
06
0>
#1115
b10 J
16
1>
#1120
06
0>
#1125
b0 J
16
1>
#1130
06
0>
#1135
bx <
bx @
bx L
bx R
bx ;
bx ?
bx K
bx Q
13
14
1I
16
1>
#1136
bx A
bx N
bx S
bx M
xT
xP
#1140
06
0>
#1145
16
1>
07
#1150
06
0>
#1155
b1 J
16
1>
08
#1160
06
0>
#1165
bx G
03
04
0I
16
1>
#1170
06
0>
#1175
16
1>
b11110 ;
b11110 ?
b11110 K
b11110 Q
#1180
06
0>
#1185
16
1>
b1111 <
b1111 @
b1111 L
b1111 R
#1186
b10110 A
b10110 N
b101101 S
b101101 M
0T
b10000 _
b100000 `
b11000 ]
b110 ^
17
#1187
0P
#1190
06
0>
#1195
b10110 G
16
1>
#1196
b10000 c
b100000 d
b11000 a
b110 b
18
#1200
06
0>
#1205
b10 J
16
1>
#1210
06
0>
#1215
b11 J
16
1>
#1220
06
0>
#1225
r1225 \
b10101 G
15
1H
16
1>
#1230
06
0>
#1235
b10100 G
16
1>
#1240
06
0>
#1245
b10011 G
16
1>
#1250
06
0>
#1255
b10010 G
16
1>
#1260
06
0>
#1265
b10001 G
16
1>
#1270
06
0>
#1275
b10000 G
16
1>
#1280
06
0>
#1285
b1111 G
16
1>
#1290
06
0>
#1295
b1110 G
16
1>
#1300
06
0>
#1305
b1101 G
16
1>
#1310
06
0>
#1315
b1100 G
16
1>
#1320
06
0>
#1325
b1011 G
16
1>
#1330
06
0>
#1335
b1010 G
16
1>
#1340
06
0>
#1345
b1001 G
16
1>
#1350
06
0>
#1355
b1000 G
16
1>
#1360
06
0>
#1365
b111 G
16
1>
#1370
06
0>
#1375
b110 G
16
1>
#1380
06
0>
#1385
b101 G
16
1>
#1390
06
0>
#1395
b100 G
16
1>
#1400
06
0>
#1405
b11 G
16
1>
#1410
06
0>
#1415
b10 G
16
1>
#1420
06
0>
#1425
b1 G
16
1>
#1430
06
0>
#1435
b0 J
b0 G
16
1>
#1440
06
0>
#1445
bx <
bx @
bx L
bx R
bx ;
bx ?
bx K
bx Q
b10000 X
b100000 Y
b11000 V
b110 W
r22 Z
r1445 [
13
14
1I
05
0H
16
1>
#1446
bx A
bx N
bx S
bx M
xT
xP
#1450
06
0>
#1455
16
1>
07
#1460
06
0>
#1465
b1 J
16
1>
08
#1470
06
0>
#1475
bx G
03
04
0I
16
1>
#1480
06
0>
#1485
16
1>
b10000 ;
b10000 ?
b10000 K
b10000 Q
#1490
06
0>
#1495
16
1>
b100000 <
b100000 @
b100000 L
b100000 R
#1496
b11000 A
b11000 N
b110000 S
b110000 M
0T
b100010 _
b10001 `
b11001 ]
b111 ^
17
#1497
0P
#1500
06
0>
#1505
b11000 G
16
1>
#1506
b100010 c
b10001 d
b11001 a
b111 b
18
#1510
06
0>
#1515
b10 J
16
1>
#1520
06
0>
#1525
b11 J
16
1>
#1530
06
0>
#1535
r1535 \
b10111 G
15
1H
16
1>
#1540
06
0>
#1545
b10110 G
16
1>
#1550
06
0>
#1555
b10101 G
16
1>
#1560
06
0>
#1565
b10100 G
16
1>
#1570
06
0>
#1575
b10011 G
16
1>
#1580
06
0>
#1585
b10010 G
16
1>
#1590
06
0>
#1595
b10001 G
16
1>
#1600
06
0>
#1605
b10000 G
16
1>
#1610
06
0>
#1615
b1111 G
16
1>
#1620
06
0>
#1625
b1110 G
16
1>
#1630
06
0>
#1635
b1101 G
16
1>
#1640
06
0>
#1645
b1100 G
16
1>
#1650
06
0>
#1655
b1011 G
16
1>
#1660
06
0>
#1665
b1010 G
16
1>
#1670
06
0>
#1675
b1001 G
16
1>
#1680
06
0>
#1685
b1000 G
16
1>
#1690
06
0>
#1695
b111 G
16
1>
#1700
06
0>
#1705
b110 G
16
1>
#1710
06
0>
#1715
b101 G
16
1>
#1720
06
0>
#1725
b100 G
16
1>
#1730
06
0>
#1735
b11 G
16
1>
#1740
06
0>
#1745
b10 G
16
1>
#1750
06
0>
#1755
b1 G
16
1>
#1760
06
0>
#1765
b0 J
b0 G
16
1>
#1770
06
0>
#1775
bx <
bx @
bx L
bx R
bx ;
bx ?
bx K
bx Q
b100010 X
b10001 Y
b11001 V
b111 W
r24 Z
r1775 [
13
14
1I
05
0H
16
1>
#1776
bx A
bx N
bx S
bx M
xT
xP
#1780
06
0>
#1785
16
1>
07
#1790
06
0>
#1795
b1 J
16
1>
08
#1800
06
0>
#1805
bx G
03
04
0I
16
1>
#1810
06
0>
#1815
16
1>
b100010 ;
b100010 ?
b100010 K
b100010 Q
#1820
06
0>
#1825
16
1>
b10001 <
b10001 @
b10001 L
b10001 R
#1826
b11001 A
b11001 N
b110011 S
b110011 M
0T
b10010 _
b100100 `
b11011 ]
b1000 ^
17
#1827
0P
#1830
06
0>
#1835
b11001 G
16
1>
#1836
b10010 c
b100100 d
b11011 a
b1000 b
18
#1840
06
0>
#1845
b10 J
16
1>
#1850
06
0>
#1855
b11 J
16
1>
#1860
06
0>
#1865
r1865 \
b11000 G
15
1H
16
1>
#1870
06
0>
#1875
b10111 G
16
1>
#1880
06
0>
#1885
b10110 G
16
1>
#1890
06
0>
#1895
b10101 G
16
1>
#1900
06
0>
#1905
b10100 G
16
1>
#1910
06
0>
#1915
b10011 G
16
1>
#1920
06
0>
#1925
b10010 G
16
1>
#1930
06
0>
#1935
b10001 G
16
1>
#1940
06
0>
#1945
b10000 G
16
1>
#1950
06
0>
#1955
b1111 G
16
1>
#1960
06
0>
#1965
b1110 G
16
1>
#1970
06
0>
#1975
b1101 G
16
1>
#1980
06
0>
#1985
b1100 G
16
1>
#1990
06
0>
#1995
b1011 G
16
1>
#2000
06
0>
#2005
b1010 G
16
1>
#2010
06
0>
#2015
b1001 G
16
1>
#2020
06
0>
#2025
b1000 G
16
1>
#2030
06
0>
#2035
b111 G
16
1>
#2040
06
0>
#2045
b110 G
16
1>
#2050
06
0>
#2055
b101 G
16
1>
#2060
06
0>
#2065
b100 G
16
1>
#2070
06
0>
#2075
b11 G
16
1>
#2080
06
0>
#2085
b10 G
16
1>
#2090
06
0>
#2095
b1 G
16
1>
#2100
06
0>
#2105
b0 J
b0 G
16
1>
#2110
06
0>
#2115
bx <
bx @
bx L
bx R
bx ;
bx ?
bx K
bx Q
b10010 X
b100100 Y
b11011 V
b1000 W
r25 Z
r2115 [
13
14
1I
05
0H
16
1>
#2116
bx A
bx N
bx S
bx M
xT
xP
#2120
06
0>
#2125
16
1>
07
#2130
06
0>
#2135
b1 J
16
1>
08
#2140
06
0>
#2145
bx G
03
04
0I
16
1>
#2150
06
0>
#2155
16
1>
b10010 ;
b10010 ?
b10010 K
b10010 Q
#2160
06
0>
#2165
16
1>
b100100 <
b100100 @
b100100 L
b100100 R
#2166
b11011 A
b11011 N
b110110 S
b110110 M
0T
b100110 _
b10011 `
b11100 ]
b1001 ^
17
#2167
0P
#2170
06
0>
#2175
b11011 G
16
1>
#2176
b100110 c
b10011 d
b11100 a
b1001 b
18
#2180
06
0>
#2185
b10 J
16
1>
#2190
06
0>
#2195
b11 J
16
1>
#2200
06
0>
#2205
r2205 \
b11010 G
15
1H
16
1>
#2210
06
0>
#2215
b11001 G
16
1>
#2220
06
0>
#2225
b11000 G
16
1>
#2230
06
0>
#2235
b10111 G
16
1>
#2240
06
0>
#2245
b10110 G
16
1>
#2250
06
0>
#2255
b10101 G
16
1>
#2260
06
0>
#2265
b10100 G
16
1>
#2270
06
0>
#2275
b10011 G
16
1>
#2280
06
0>
#2285
b10010 G
16
1>
#2290
06
0>
#2295
b10001 G
16
1>
#2300
06
0>
#2305
b10000 G
16
1>
#2310
06
0>
#2315
b1111 G
16
1>
#2320
06
0>
#2325
b1110 G
16
1>
#2330
06
0>
#2335
b1101 G
16
1>
#2340
06
0>
#2345
b1100 G
16
1>
#2350
06
0>
#2355
b1011 G
16
1>
#2360
06
0>
#2365
b1010 G
16
1>
#2370
06
0>
#2375
b1001 G
16
1>
#2380
06
0>
#2385
b1000 G
16
1>
#2390
06
0>
#2395
b111 G
16
1>
#2400
06
0>
#2405
b110 G
16
1>
#2410
06
0>
#2415
b101 G
16
1>
#2420
06
0>
#2425
b100 G
16
1>
#2430
06
0>
#2435
b11 G
16
1>
#2440
06
0>
#2445
b10 G
16
1>
#2450
06
0>
#2455
b1 G
16
1>
#2460
06
0>
#2465
b0 J
b0 G
16
1>
#2470
06
0>
#2475
bx <
bx @
bx L
bx R
bx ;
bx ?
bx K
bx Q
b100110 X
b10011 Y
b11100 V
b1001 W
r27 Z
r2475 [
13
14
1I
05
0H
16
1>
#2476
bx A
bx N
bx S
bx M
xT
xP
#2480
06
0>
#2485
16
1>
07
#2490
06
0>
#2495
b1 J
16
1>
08
#2500
06
0>
#2505
bx G
03
04
0I
16
1>
#2510
06
0>
#2515
16
1>
b100110 ;
b100110 ?
b100110 K
b100110 Q
#2520
06
0>
#2525
16
1>
b10011 <
b10011 @
b10011 L
b10011 R
#2526
b11100 A
b11100 N
b111001 S
b111001 M
0T
b10100 _
b101000 `
b11110 ]
b1010 ^
17
#2527
0P
#2530
06
0>
#2535
b11100 G
16
1>
#2536
b10100 c
b101000 d
b11110 a
b1010 b
18
#2540
06
0>
#2545
b10 J
16
1>
#2550
06
0>
#2555
b11 J
16
1>
#2560
06
0>
#2565
r2565 \
b11011 G
15
1H
16
1>
#2570
06
0>
#2575
b11010 G
16
1>
#2580
06
0>
#2585
b11001 G
16
1>
#2590
06
0>
#2595
b11000 G
16
1>
#2600
06
0>
#2605
b10111 G
16
1>
#2610
06
0>
#2615
b10110 G
16
1>
#2620
06
0>
#2625
b10101 G
16
1>
#2630
06
0>
#2635
b10100 G
16
1>
#2640
06
0>
#2645
b10011 G
16
1>
#2650
06
0>
#2655
b10010 G
16
1>
#2660
06
0>
#2665
b10001 G
16
1>
#2670
06
0>
#2675
b10000 G
16
1>
#2680
06
0>
#2685
b1111 G
16
1>
#2690
06
0>
#2695
b1110 G
16
1>
#2700
06
0>
#2705
b1101 G
16
1>
#2710
06
0>
#2715
b1100 G
16
1>
#2720
06
0>
#2725
b1011 G
16
1>
#2730
06
0>
#2735
b1010 G
16
1>
#2740
06
0>
#2745
b1001 G
16
1>
#2750
06
0>
#2755
b1000 G
16
1>
#2760
06
0>
#2765
b111 G
16
1>
#2770
06
0>
#2775
b110 G
16
1>
#2780
06
0>
#2785
b101 G
16
1>
#2790
06
0>
#2795
b100 G
16
1>
#2800
06
0>
#2805
b11 G
16
1>
#2810
06
0>
#2815
b10 G
16
1>
#2820
06
0>
#2825
b1 G
16
1>
#2830
06
0>
#2835
b0 J
b0 G
16
1>
#2840
06
0>
#2845
bx <
bx @
bx L
bx R
bx ;
bx ?
bx K
bx Q
b10100 X
b101000 Y
b11110 V
b1010 W
r28 Z
r2845 [
13
14
1I
05
0H
16
1>
#2846
bx A
bx N
bx S
bx M
xT
xP
#2850
06
0>
#2855
16
1>
07
#2860
06
0>
#2865
b1 J
16
1>
08
#2870
06
0>
#2875
bx G
03
04
0I
16
1>
#2880
06
0>
#2885
16
1>
b10100 ;
b10100 ?
b10100 K
b10100 Q
#2890
06
0>
#2895
16
1>
b101000 <
b101000 @
b101000 L
b101000 R
#2896
b11110 A
b11110 N
b111100 S
b111100 M
0T
b101010 _
b10101 `
b11111 ]
b1011 ^
17
#2897
0P
#2900
06
0>
#2905
b11110 G
16
1>
#2906
b101010 c
b10101 d
b11111 a
b1011 b
18
#2910
06
0>
#2915
b10 J
16
1>
#2920
06
0>
#2925
b11 J
16
1>
#2930
06
0>
#2935
r2935 \
b11101 G
15
1H
16
1>
#2940
06
0>
#2945
b11100 G
16
1>
#2950
06
0>
#2955
b11011 G
16
1>
#2960
06
0>
#2965
b11010 G
16
1>
#2970
06
0>
#2975
b11001 G
16
1>
#2980
06
0>
#2985
b11000 G
16
1>
#2990
06
0>
#2995
b10111 G
16
1>
#3000
06
0>
#3005
b10110 G
16
1>
#3010
06
0>
#3015
b10101 G
16
1>
#3020
06
0>
#3025
b10100 G
16
1>
#3030
06
0>
#3035
b10011 G
16
1>
#3040
06
0>
#3045
b10010 G
16
1>
#3050
06
0>
#3055
b10001 G
16
1>
#3060
06
0>
#3065
b10000 G
16
1>
#3070
06
0>
#3075
b1111 G
16
1>
#3080
06
0>
#3085
b1110 G
16
1>
#3090
06
0>
#3095
b1101 G
16
1>
#3100
06
0>
#3105
b1100 G
16
1>
#3110
06
0>
#3115
b1011 G
16
1>
#3120
06
0>
#3125
b1010 G
16
1>
#3130
06
0>
#3135
b1001 G
16
1>
#3140
06
0>
#3145
b1000 G
16
1>
#3150
06
0>
#3155
b111 G
16
1>
#3160
06
0>
#3165
b110 G
16
1>
#3170
06
0>
#3175
b101 G
16
1>
#3180
06
0>
#3185
b100 G
16
1>
#3190
06
0>
#3195
b11 G
16
1>
#3200
06
0>
#3205
b10 G
16
1>
#3210
06
0>
#3215
b1 G
16
1>
#3220
06
0>
#3225
b0 J
b0 G
16
1>
#3230
06
0>
#3235
bx <
bx @
bx L
bx R
bx ;
bx ?
bx K
bx Q
b101010 X
b10101 Y
b11111 V
b1011 W
r30 Z
r3235 [
13
14
1I
05
0H
16
1>
#3236
bx A
bx N
bx S
bx M
xT
xP
#3240
06
0>
#3245
16
1>
07
#3250
06
0>
#3255
b1 J
16
1>
08
#3260
06
0>
#3265
bx G
03
04
0I
16
1>
#3270
06
0>
#3275
16
1>
b101010 ;
b101010 ?
b101010 K
b101010 Q
#3280
06
0>
#3285
16
1>
b10101 <
b10101 @
b10101 L
b10101 R
#3286
b11111 A
b11111 N
b111111 S
b111111 M
0T
b10110 _
b101100 `
b100001 ]
b1100 ^
17
#3287
0P
#3290
06
0>
#3295
b11111 G
16
1>
#3296
b10110 c
b101100 d
b100001 a
b1100 b
18
#3300
06
0>
#3305
b10 J
16
1>
#3310
06
0>
#3315
b11 J
16
1>
#3320
06
0>
#3325
r3325 \
b11110 G
15
1H
16
1>
#3330
06
0>
#3335
b11101 G
16
1>
#3340
06
0>
#3345
b11100 G
16
1>
#3350
06
0>
#3355
b11011 G
16
1>
#3360
06
0>
#3365
b11010 G
16
1>
#3370
06
0>
#3375
b11001 G
16
1>
#3380
06
0>
#3385
b11000 G
16
1>
#3390
06
0>
#3395
b10111 G
16
1>
#3400
06
0>
#3405
b10110 G
16
1>
#3410
06
0>
#3415
b10101 G
16
1>
#3420
06
0>
#3425
b10100 G
16
1>
#3430
06
0>
#3435
b10011 G
16
1>
#3440
06
0>
#3445
b10010 G
16
1>
#3450
06
0>
#3455
b10001 G
16
1>
#3460
06
0>
#3465
b10000 G
16
1>
#3470
06
0>
#3475
b1111 G
16
1>
#3480
06
0>
#3485
b1110 G
16
1>
#3490
06
0>
#3495
b1101 G
16
1>
#3500
06
0>
#3505
b1100 G
16
1>
#3510
06
0>
#3515
b1011 G
16
1>
#3520
06
0>
#3525
b1010 G
16
1>
#3530
06
0>
#3535
b1001 G
16
1>
#3540
06
0>
#3545
b1000 G
16
1>
#3550
06
0>
#3555
b111 G
16
1>
#3560
06
0>
#3565
b110 G
16
1>
#3570
06
0>
#3575
b101 G
16
1>
#3580
06
0>
#3585
b100 G
16
1>
#3590
06
0>
#3595
b11 G
16
1>
#3600
06
0>
#3605
b10 G
16
1>
#3610
06
0>
#3615
b1 G
16
1>
#3620
06
0>
#3625
b0 J
b0 G
16
1>
#3630
06
0>
#3635
bx <
bx @
bx L
bx R
bx ;
bx ?
bx K
bx Q
b10110 X
b101100 Y
b100001 V
b1100 W
r31 Z
r3635 [
13
14
1I
05
0H
16
1>
#3636
bx A
bx N
bx S
bx M
xT
xP
#3640
06
0>
#3645
16
1>
07
#3650
06
0>
#3655
b1 J
16
1>
08
#3660
06
0>
#3665
bx G
03
04
0I
16
1>
#3670
06
0>
#3675
16
1>
b10110 ;
b10110 ?
b10110 K
b10110 Q
#3680
06
0>
#3685
16
1>
b101100 <
b101100 @
b101100 L
b101100 R
#3686
b100001 A
b100001 N
b1000010 S
b1000010 M
0T
b101110 _
b10111 `
b100010 ]
b1101 ^
17
#3687
0P
#3690
06
0>
#3695
b100001 G
16
1>
#3696
b101110 c
b10111 d
b100010 a
b1101 b
18
#3700
06
0>
#3705
b10 J
16
1>
#3710
06
0>
#3715
b11 J
16
1>
#3720
06
0>
#3725
r3725 \
b100000 G
15
1H
16
1>
#3730
06
0>
#3735
b11111 G
16
1>
#3740
06
0>
#3745
b11110 G
16
1>
#3750
06
0>
#3755
b11101 G
16
1>
#3760
06
0>
#3765
b11100 G
16
1>
#3770
06
0>
#3775
b11011 G
16
1>
#3780
06
0>
#3785
b11010 G
16
1>
#3790
06
0>
#3795
b11001 G
16
1>
#3800
06
0>
#3805
b11000 G
16
1>
#3810
06
0>
#3815
b10111 G
16
1>
#3820
06
0>
#3825
b10110 G
16
1>
#3830
06
0>
#3835
b10101 G
16
1>
#3840
06
0>
#3845
b10100 G
16
1>
#3850
06
0>
#3855
b10011 G
16
1>
#3860
06
0>
#3865
b10010 G
16
1>
#3870
06
0>
#3875
b10001 G
16
1>
#3880
06
0>
#3885
b10000 G
16
1>
#3890
06
0>
#3895
b1111 G
16
1>
#3900
06
0>
#3905
b1110 G
16
1>
#3910
06
0>
#3915
b1101 G
16
1>
#3920
06
0>
#3925
b1100 G
16
1>
#3930
06
0>
#3935
b1011 G
16
1>
#3940
06
0>
#3945
b1010 G
16
1>
#3950
06
0>
#3955
b1001 G
16
1>
#3960
06
0>
#3965
b1000 G
16
1>
#3970
06
0>
#3975
b111 G
16
1>
#3980
06
0>
#3985
b110 G
16
1>
#3990
06
0>
#3995
b101 G
16
1>
#4000
06
0>
#4005
b100 G
16
1>
#4010
06
0>
#4015
b11 G
16
1>
#4020
06
0>
#4025
b10 G
16
1>
#4030
06
0>
#4035
b1 G
16
1>
#4040
06
0>
#4045
b0 J
b0 G
16
1>
#4050
06
0>
#4055
bx <
bx @
bx L
bx R
bx ;
bx ?
bx K
bx Q
b101110 X
b10111 Y
b100010 V
b1101 W
r33 Z
r4055 [
13
14
1I
05
0H
16
1>
#4056
bx A
bx N
bx S
bx M
xT
xP
#4060
06
0>
#4065
16
1>
07
#4070
06
0>
#4075
b1 J
16
1>
08
#4080
06
0>
#4085
bx G
03
04
0I
16
1>
#4090
06
0>
#4095
16
1>
b101110 ;
b101110 ?
b101110 K
b101110 Q
#4100
06
0>
#4105
16
1>
b10111 <
b10111 @
b10111 L
b10111 R
#4106
b100010 A
b100010 N
b1000101 S
b1000101 M
0T
b11000 _
b110000 `
b100100 ]
b1110 ^
17
#4107
0P
#4110
06
0>
#4115
b100010 G
16
1>
#4116
b11000 c
b110000 d
b100100 a
b1110 b
18
#4120
06
0>
#4125
b10 J
16
1>
#4130
06
0>
#4135
b11 J
16
1>
#4140
06
0>
#4145
r4145 \
b100001 G
15
1H
16
1>
#4150
06
0>
#4155
b100000 G
16
1>
#4160
06
0>
#4165
b11111 G
16
1>
