reti_logiche/esami/verilog/2024-01-09/waveform.vcd
$date
	Mon Jun  2 16:00:51 2025
$end
$version
	Icarus Verilog
$end
$timescale
	1s
$end
$scope module comp_nat $end
$var wire 2 ! a [1:0] $end
$var wire 2 " b [1:0] $end
$var wire 1 # min $end
$var wire 1 $ eq $end
$var parameter 32 % N $end
$upscope $end
$scope module diff $end
$var wire 1 & b_in $end
$var wire 8 ' x [7:0] $end
$var wire 8 ( y [7:0] $end
$var wire 1 ) ow $end
$var wire 8 * d [7:0] $end
$var wire 1 + b_out $end
$var parameter 32 , N $end
$upscope $end
$scope module testbench $end
$var wire 1 - soc $end
$var wire 32 . q [31:0] $end
$var wire 1 / dav_ $end
$var wire 1 0 clock $end
$var reg 1 1 eocx $end
$var reg 1 2 eocy $end
$var reg 1 3 error $end
$var reg 1 4 reset_ $end
$var reg 1 5 rfd $end
$var reg 8 6 x [7:0] $end
$var reg 8 7 y [7:0] $end
$scope function get_testcase $end
$upscope $end
$scope module clk $end
$var wire 1 0 clock $end
$var parameter 32 8 HALF_PERIOD $end
$var reg 1 9 CLOCK $end
$upscope $end
$scope module dut $end
$var wire 1 0 clock $end
$var wire 1 1 eocx $end
$var wire 1 2 eocy $end
$var wire 1 4 reset_ $end
$var wire 1 5 rfd $end
$var wire 8 : x [7:0] $end
$var wire 8 ; y [7:0] $end
$var wire 1 - soc $end
$var wire 32 < q [31:0] $end
$var wire 1 / dav_ $end
$var wire 1 = c2 $end
$var wire 1 > c1 $end
$var wire 1 ? c0 $end
$var wire 1 @ b3 $end
$var wire 1 A b2 $end
$var wire 1 B b1 $end
$var wire 1 C b0 $end
$scope module pc $end
$var wire 1 0 clock $end
$var wire 1 4 reset_ $end
$var wire 1 = c2 $end
$var wire 1 > c1 $end
$var wire 1 ? c0 $end
$var wire 1 @ b3 $end
$var wire 1 A b2 $end
$var wire 1 B b1 $end
$var wire 1 C b0 $end
$var parameter 32 D S0 $end
$var parameter 32 E S1 $end
$var parameter 32 F S2 $end
$var parameter 32 G S3 $end
$var reg 3 H STAR [2:0] $end
$upscope $end
$scope module po $end
$var wire 1 C b0 $end
$var wire 1 B b1 $end
$var wire 1 A b2 $end
$var wire 1 @ b3 $end
$var wire 1 ? c0 $end
$var wire 1 > c1 $end
$var wire 1 = c2 $end
$var wire 1 0 clock $end
$var wire 1 / dav_ $end
$var wire 1 1 eocx $end
$var wire 1 2 eocy $end
$var wire 32 I q [31:0] $end
$var wire 1 4 reset_ $end
$var wire 1 5 rfd $end
$var wire 1 - soc $end
$var wire 8 J x [7:0] $end
$var wire 8 K y [7:0] $end
$var wire 18 L quadrato [17:0] $end
$var reg 1 M DAV_ $end
$var reg 32 N Q [31:0] $end
$var reg 1 O SOC $end
$scope module qds $end
$var wire 8 P x [7:0] $end
$var wire 8 Q y [7:0] $end
$var wire 16 R y_quadrato [15:0] $end
$var wire 17 S xy2 [16:0] $end
$var wire 16 T xy [15:0] $end
$var wire 16 U x_quadrato [15:0] $end
$var wire 17 V s1 [16:0] $end
$var wire 18 W quadrato [17:0] $end
$scope module a1 $end
$var wire 1 X c_in $end
$var wire 1 Y ow $end
$var wire 16 Z y [15:0] $end
$var wire 16 [ x [15:0] $end
$var wire 16 \ s [15:0] $end
$var wire 1 ] c_out $end
$var parameter 32 ^ N $end
$upscope $end
$scope module a2 $end
$var wire 1 _ c_in $end
$var wire 1 ` ow $end
$var wire 17 a x [16:0] $end
$var wire 17 b y [16:0] $end
$var wire 17 c s [16:0] $end
$var wire 1 d c_out $end
$var parameter 32 e N $end
$upscope $end
$scope module m1 $end
$var wire 8 f c [7:0] $end
$var wire 8 g x [7:0] $end
$var wire 8 h y [7:0] $end
$var wire 16 i m [15:0] $end
$var parameter 32 j M $end
$var parameter 32 k N $end
$upscope $end
$scope module m2 $end
$var wire 8 l c [7:0] $end
$var wire 8 m x [7:0] $end
$var wire 8 n y [7:0] $end
$var wire 16 o m [15:0] $end
$var parameter 32 p M $end
$var parameter 32 q N $end
$upscope $end
$scope module m3 $end
$var wire 8 r c [7:0] $end
$var wire 8 s x [7:0] $end
$var wire 8 t y [7:0] $end
$var wire 16 u m [15:0] $end
$var parameter 32 v M $end
$var parameter 32 w N $end
$upscope $end
$upscope $end
$upscope $end
$upscope $end
$scope fork f $end
$scope begin consumer $end
$var reg 5 x i [4:0] $end
$var reg 32 y q_c [31:0] $end
$var reg 8 z x_c [7:0] $end
$var reg 8 { y_c [7:0] $end
$upscope $end
$scope begin producer_1 $end
$var reg 5 | i [4:0] $end
$var reg 32 } q_p [31:0] $end
$var reg 8 ~ x_p [7:0] $end
$var reg 8 !" y_p [7:0] $end
$upscope $end
$scope begin producer_2 $end
$var reg 5 "" i [4:0] $end
$var reg 32 #" q_p [31:0] $end
$var reg 8 $" x_p [7:0] $end
$var reg 8 %" y_p [7:0] $end
$upscope $end
$upscope $end
$upscope $end
$enddefinitions $end
$comment Show the parameter values. $end
$dumpall
b1000 w
b1000 v
b1000 q
b1000 p
b1000 k
b1000 j
b10001 e
b10000 ^
b11 G
b10 F
b1 E
b0 D
b101 8
b1000 ,
b10 %
$end
#0
$dumpvars
bx %"
bx $"
bx #"
bx ""
bx !"
bx ~
bx }
bx |
bx {
bx z
bx y
bx x
bx u
bx t
bx s
b0 r
bx o
bx n
bx m
b0 l
bx i
bx h
bx g
b0 f
xd
bx c
bx0 b
bx a
x`
0_
x]
bx \
bx [
bx Z
xY
0X
bx W
bx V
bx U
bx T
bx0 S
bx R
bx Q
bx P
0O
bx N
1M
bx L
bx K
bx J
bx I
b0 H
0C
0B
0A
0@
0?
1>
0=
bx <
bx ;
bx :
09
bx 7
bx 6
15
04
03
12
11
00
1/
bx .
0-
x+
bx *
x)
bz (
bz '
z&
x$
x#
bz "
bz !
$end
#5
1-
1O
10
19
b11111111 ~
b11111111 !"
b111111100000000100 }
b0 |
b11111111 $"
b11111111 %"
b111111100000000100 #"
b0 ""
b11111111 z
b11111111 {
b111111100000000100 y
b0 x
14
#10
00
09
#15
1C
b1 H
10
19
1?
0>
02
01
#20
00
09
#25
0-
0O
b0xxxxxxxxxxxxxxxxxx .
b0xxxxxxxxxxxxxxxxxx <
b0xxxxxxxxxxxxxxxxxx I
b0xxxxxxxxxxxxxxxxxx N
10
19
#30
00
09
#35
10
19
b11111111 6
b11111111 :
b11111111 J
b11111111 P
b11111111 g
b11111111 h
b11111111 s
b11111111 7
b11111111 ;
b11111111 K
b11111111 Q
b11111111 m
b11111111 n
b11111111 t
#36
b1111111000000001 U
b1111111000000001 [
b1111111000000001 i
b11111110000000010 S
b11111110000000010 b
b1111111000000001 T
b1111111000000001 u
b1111111000000001 R
b1111111000000001 Z
b1111111000000001 o
#37
b1111110000000010 \
b11111110000000010 V
b11111110000000010 a
1]
#38
b11111100000000100 c
b111111100000000100 L
b111111100000000100 W
1d
0Y
#39
0`
#40
00
09
#45
0C
1B
1A
b111111100000000100 .
b111111100000000100 <
b111111100000000100 I
b111111100000000100 N
b10 H
10
19
0?
1>
b1 ~
b101 !"
b100100 }
b1 |
11
b1 $"
b101 %"
b100100 #"
b1 ""
12
#50
00
09
#55
0/
0M
10
19
#60
00
09
#65
0A
1@
b11 H
10
19
1=
05
#70
00
09
#75
1/
1M
10
19
#80
00
09
#85
0B
0@
b0 H
10
19
0=
b1 z
b101 {
b100100 y
b1 x
15
#90
00
09
#95
1-
1O
10
19
#100
00
09
#105
1C
b1 H
10
19
1?
0>
02
01
#110
00
09
#115
0-
0O
10
19
#120
00
09
#125
10
19
b1 6
b1 :
b1 J
b1 P
b1 g
b1 h
b1 s
b101 7
b101 ;
b101 K
b101 Q
b101 m
b101 n
b101 t
#126
b1 U
b1 [
b1 i
b11001 R
b11001 Z
b11001 o
b1010 S
b1010 b
b101 T
b101 u
#127
b11010 \
b11010 V
b11010 a
0]
b11111110000001100 c
b11111110000001100 L
b11111110000001100 W
0d
1Y
#128
b100100 L
b100100 W
b100100 c
0Y
1`
#129
0`
#130
00
09
#135
0C
1B
1A
b10 H
b100100 .
b100100 <
b100100 I
b100100 N
10
19
0?
1>
b110 !"
b110001 }
b10 |
11
b110 %"
b110001 #"
b10 ""
12
#140
00
09
#145
0/
0M
10
19
#150
00
09
#155
0A
1@
b11 H
10
19
1=
05
#160
00
09
#165
1/
1M
10
19
#170
00
09
#175
0B
0@
b0 H
10
19
0=
b110 {
b110001 y
b10 x
15
#180
00
09
#185
1-
1O
10
19
#190
00
09
#195
1C
b1 H
10
19
1?
0>
02
01
#200
00
09
#205
0-
0O
10
19
#210
00
09
#215
10
19
b110 7
b110 ;
b110 K
b110 Q
b110 m
b110 n
b110 t
#216
b100100 R
b100100 Z
b100100 o
b1100 S
b1100 b
b110 T
b110 u
#217
b100101 V
b100101 a
b100101 \
b100110 L
b100110 W
b100110 c
#218
b110001 L
b110001 W
b110001 c
#220
00
09
#225
0C
1B
1A
b110001 .
b110001 <
b110001 I
b110001 N
b10 H
10
19
0?
1>
b111 !"
b1000000 }
b11 |
11
b111 %"
b1000000 #"
b11 ""
12
#230
00
09
#235
0/
0M
10
19
#240
00
09
#245
0A
1@
b11 H
10
19
1=
05
#250
00
09
#255
1/
1M
10
19
#260
00
09
#265
0B
0@
b0 H
10
19
0=
b111 {
b1000000 y
b11 x
15
#270
00
09
#275
1-
1O
10
19
#280
00
09
#285
1C
b1 H
10
19
1?
0>
02
01
#290
00
09
#295
0-
0O
10
19
#300
00
09
#305
10
19
b111 7
b111 ;
b111 K
b111 Q
b111 m
b111 n
b111 t
#306
b110001 R
b110001 Z
b110001 o
b1110 S
b1110 b
b111 T
b111 u
#307
b110010 V
b110010 a
b110010 \
b110011 L
b110011 W
b110011 c
#308
b1000000 L
b1000000 W
b1000000 c
#310
00
09
#315
0C
1B
1A
b10 H
b1000000 .
b1000000 <
b1000000 I
b1000000 N
10
19
0?
1>
b10 ~
b100 !"
b100100 }
b100 |
11
b10 $"
b100 %"
b100100 #"
b100 ""
12
#320
00
09
#325
0/
0M
10
19
#330
00
09
#335
0A
1@
b11 H
10
19
1=
05
#340
00
09
#345
1/
1M
10
19
#350
00
09
#355
0B
0@
b0 H
10
19
0=
b10 z
b100 {
b100100 y
b100 x
15
#360
00
09
#365
1-
1O
10
19
#370
00
09
#375
1C
b1 H
10
19
1?
0>
02
01
#380
00
09
#385
0-
0O
10
19
#390
00
09
#395
10
19
b10 6
b10 :
b10 J
b10 P
b10 g
b10 h
b10 s
b100 7
b100 ;
b100 K
b100 Q
b100 m
b100 n
b100 t
#396
b100 U
b100 [
b100 i
b10000 R
b10000 Z
b10000 o
b10000 S
b10000 b
b1000 T
b1000 u
#397
b10100 V
b10100 a
b10100 \
b1000010 L
b1000010 W
b1000010 c
#398
b100100 L
b100100 W
b100100 c
#400
00
09
#405
0C
1B
1A
b100100 .
b100100 <
b100100 I
b100100 N
b10 H
10
19
0?
1>
b101 !"
b110001 }
b101 |
11
b101 %"
b110001 #"
b101 ""
12
#410
00
09
#415
0/
0M
10
19
#420
00
09
#425
0A
1@
b11 H
10
19
1=
05
#430
00
09
#435
1/
1M
10
19
#440
00
09
#445
0B
0@
b0 H
10
19
0=
b101 {
b110001 y
b101 x
15
#450
00
09
#455
1-
1O
10
19
#460
00
09
#465
1C
b1 H
10
19
1?
0>
02
01
#470
00
09
#475
0-
0O
10
19
#480
00
09
#485
10
19
b101 7
b101 ;
b101 K
b101 Q
b101 m
b101 n
b101 t
#486
b11001 R
b11001 Z
b11001 o
b10100 S
b10100 b
b1010 T
b1010 u
#487
b11101 V
b11101 a
b11101 \
b101000 L
b101000 W
b101000 c
#488
b110001 L
b110001 W
b110001 c
#490
00
09
#495
0C
1B
1A
b10 H
b110001 .
b110001 <
b110001 I
b110001 N
10
19
0?
1>
b110 !"
b1000000 }
b110 |
11
b110 %"
b1000000 #"
b110 ""
12
#500
00
09
#505
0/
0M
10
19
#510
00
09
#515
0A
1@
b11 H
10
19
1=
05
#520
00
09
#525
1/
1M
10
19
#530
00
09
#535
0B
0@
b0 H
10
19
0=
b110 {
b1000000 y
b110 x
15
#540
00
09
#545
1-
1O
10
19
#550
00
09
#555
1C
b1 H
10
19
1?
0>
02
01
#560
00
09
#565
0-
0O
10
19
#570
00
09
#575
10
19
b110 7
b110 ;
b110 K
b110 Q
b110 m
b110 n
b110 t
#576
b100100 R
b100100 Z
b100100 o
b11000 S
b11000 b
b1100 T
b1100 u
#577
b101000 V
b101000 a
b101000 \
b110101 L
b110101 W
b110101 c
#578
b1000000 L
b1000000 W
b1000000 c
#580
00
09
#585
0C
1B
1A
b1000000 .
b1000000 <
b1000000 I
b1000000 N
b10 H
10
19
0?
1>
b111 !"
b1010001 }
b111 |
11
b111 %"
b1010001 #"
b111 ""
12
#590
00
09
#595
0/
0M
10
19
#600
00
09
#605
0A
1@
b11 H
10
19
1=
05
#610
00
09
#615
1/
1M
10
19
#620
00
09
#625
0B
0@
b0 H
10
19
0=
b111 {
b1010001 y
b111 x
15
#630
00
09
#635
1-
1O
10
19
#640
00
09
#645
1C
b1 H
10
19
1?
0>
02
01
#650
00
09
#655
0-
0O
10
19
#660
00
09
#665
10
19
b111 7
b111 ;
b111 K
b111 Q
b111 m
b111 n
b111 t
#666
b110001 R
b110001 Z
b110001 o
b11100 S
b11100 b
b1110 T
b1110 u
#667
b110101 V
b110101 a
b110101 \
b1000100 L
b1000100 W
b1000100 c
#668
b1010001 L
b1010001 W
b1010001 c
#670
00
09
#675
0C
1B
1A
b10 H
b1010001 .
b1010001 <
b1010001 I
b1010001 N
10
19
0?
1>
b11 ~
b100 !"
b110001 }
b1000 |
11
b11 $"
b100 %"
b110001 #"
b1000 ""
12
#680
00
09
#685
0/
0M
10
19
#690
00
09
#695
0A
1@
b11 H
10
19
1=
05
#700
00
09
#705
1/
1M
10
19
#710
00
09
#715
0B
0@
b0 H
10
19
0=
b11 z
b100 {
b110001 y
b1000 x
15
#720
00
09
#725
1-
1O
10
19
#730
00
09
#735
1C
b1 H
10
19
1?
0>
02
01
#740
00
09
#745
0-
0O
10
19
#750
00
09
#755
10
19
b11 6
b11 :
b11 J
b11 P
b11 g
b11 h
b11 s
b100 7
b100 ;
b100 K
b100 Q
b100 m
b100 n
b100 t
#756
b1001 U
b1001 [
b1001 i
b10000 R
b10000 Z
b10000 o
b11000 S
b11000 b
b1100 T
b1100 u
#757
b11001 V
b11001 a
b11001 \
b1001101 L
b1001101 W
b1001101 c
#758
b110001 L
b110001 W
b110001 c
#760
00
09
#765
0C
1B
1A
b110001 .
b110001 <
b110001 I
b110001 N
b10 H
10
19
0?
1>
b101 !"
b1000000 }
b1001 |
11
b101 %"
b1000000 #"
b1001 ""
12
#770
00
09
#775
0/
0M
10
19
#780
00
09
#785
0A
1@
b11 H
10
19
1=
05
#790
00
09
#795
1/
1M
10
19
#800
00
09
#805
0B
0@
b0 H
10
19
0=
b101 {
b1000000 y
b1001 x
15
#810
00
09
#815
1-
1O
10
19
#820
00
09
#825
1C
b1 H
10
19
1?
0>
02
01
#830
00
09
#835
0-
0O
10
19
#840
00
09
#845
10
19
b101 7
b101 ;
b101 K
b101 Q
b101 m
b101 n
b101 t
#846
b11001 R
b11001 Z
b11001 o
b11110 S
b11110 b
b1111 T
b1111 u
#847
b100010 V
b100010 a
b100010 \
b110111 L
b110111 W
b110111 c
#848
b1000000 L
b1000000 W
b1000000 c
#850
00
09
#855
0C
1B
1A
b10 H
b1000000 .
b1000000 <
b1000000 I
b1000000 N
10
19
0?
1>
b110 !"
b1010001 }
b1010 |
11
b110 %"
b1010001 #"
b1010 ""
12
#860
00
09
#865
0/
0M
10
19
#870
00
09
#875
0A
1@
b11 H
10
19
1=
05
#880
00
09
#885
1/
1M
10
19
#890
00
09
#895
0B
0@
b0 H
10
19
0=
b110 {
b1010001 y
b1010 x
15
#900
00
09
#905
1-
1O
10
19
#910
00
09
#915
1C
b1 H
10
19
1?
0>
02
01
#920
00
09
#925
0-
0O
10
19
#930
00
09
#935
10
19
b110 7
b110 ;
b110 K
b110 Q
b110 m
b110 n
b110 t
#936
b100100 R
b100100 Z
b100100 o
b100100 S
b100100 b
b10010 T
b10010 u
#937
b101101 V
b101101 a
b101101 \
b1000110 L
b1000110 W
b1000110 c
#938
b1010001 L
b1010001 W
b1010001 c
#940
00
09
#945
0C
1B
1A
b1010001 .
b1010001 <
b1010001 I
b1010001 N
b10 H
10
19
0?
1>
b111 !"
b1100100 }
b1011 |
11
b111 %"
b1100100 #"
b1011 ""
12
#950
00
09
#955
0/
0M
10
19
#960
00
09
#965
0A
1@
b11 H
10
19
1=
05
#970
00
09
#975
1/
1M
10
19
#980
00
09
#985
0B
0@
b0 H
10
19
0=
b111 {
b1100100 y
b1011 x
15
#990
00
09
#995
1-
1O
10
19
#1000
00
09
#1005
1C
b1 H
10
19
1?
0>
02
01
#1010
00
09
#1015
0-
0O
10
19
#1020
00
09
#1025
10
19
b111 7
b111 ;
b111 K
b111 Q
b111 m
b111 n
b111 t
#1026
b110001 R
b110001 Z
b110001 o
b101010 S
b101010 b
b10101 T
b10101 u
#1027
b111010 V
b111010 a
b111010 \
b1010111 L
b1010111 W
b1010111 c
#1028
b1100100 L
b1100100 W
b1100100 c
#1030
00
09
#1035
0C
1B
1A
b10 H
b1100100 .
b1100100 <
b1100100 I
b1100100 N
10
19
0?
1>
b100 ~
b100 !"
b1000000 }
b1100 |
11
b100 $"
b100 %"
b1000000 #"
b1100 ""
12
#1040
00
09
#1045
0/
0M
10
19
#1050
00
09
#1055
0A
1@
b11 H
10
19
1=
05
#1060
00
09
#1065
1/
1M
10
19
#1070
00
09
#1075
0B
0@
b0 H
10
19
0=
b100 z
b100 {
b1000000 y
b1100 x
15
#1080
00
09
#1085
1-
1O
10
19
#1090
00
09
#1095
1C
b1 H
10
19
1?
0>
02
01
#1100
00
09
#1105
0-
0O
10
19
#1110
00
09
#1115
10
19
b100 6
b100 :
b100 J
b100 P
b100 g
b100 h
b100 s
b100 7
b100 ;
b100 K
b100 Q
b100 m
b100 n
b100 t
#1116
b10000 U
b10000 [
b10000 i
b10000 R
b10000 Z
b10000 o
b100000 S
b100000 b
b10000 T
b10000 u
#1117
b100000 V
b100000 a
b100000 \
b1011010 L
b1011010 W
b1011010 c
#1118
b1000000 L
b1000000 W
b1000000 c
#1120
00
09
#1125
0C
1B
1A
b1000000 .
b1000000 <
b1000000 I
b1000000 N
b10 H
10
19
0?
1>
b101 !"
b1010001 }
b1101 |
11
b101 %"
b1010001 #"
b1101 ""
12
#1130
00
09
#1135
0/
0M
10
19
#1140
00
09
#1145
0A
1@
b11 H
10
19
1=
05
#1150
00
09
#1155
1/
1M
10
19
#1160
00
09
#1165
0B
0@
b0 H
10
19
0=
b101 {
b1010001 y
b1101 x
15
#1170
00
09
#1175
1-
1O
10
19
#1180
00
09
#1185
1C
b1 H
10
19
1?
0>
02
01
#1190
00
09
#1195
0-
0O
10
19
#1200
00
09
#1205
10
19
b101 7
b101 ;
b101 K
b101 Q
b101 m
b101 n
b101 t
#1206
b11001 R
b11001 Z
b11001 o
b101000 S
b101000 b
b10100 T
b10100 u
#1207
b101001 V
b101001 a
b101001 \
b1001000 L
b1001000 W
b1001000 c
#1208
b1010001 L
b1010001 W
b1010001 c
#1210
00
09
#1215
0C
1B
1A
b10 H
b1010001 .
b1010001 <
b1010001 I
b1010001 N
10
19
0?
1>
b110 !"
b1100100 }
b1110 |
11
b110 %"
b1100100 #"
b1110 ""
12
#1220
00
09
#1225
0/
0M
10
19
#1230
00
09
#1235
0A
1@
b11 H
10
19
1=
05
#1240
00
09
#1245
1/
1M
10
19
#1250
00
09
#1255
0B
0@
b0 H
10
19
0=
b110 {
b1100100 y
b1110 x
15
#1260
00
09
#1265
1-
1O
10
19
#1270
00
09
#1275
1C
b1 H
10
19
1?
0>
02
01
#1280
00
09
#1285
0-
0O
10
19
#1290
00
09
#1295
10
19
b110 7
b110 ;
b110 K
b110 Q
b110 m
b110 n
b110 t
#1296
b100100 R
b100100 Z
b100100 o
b110000 S
b110000 b
b11000 T
b11000 u
#1297
b110100 V
b110100 a
b110100 \
b1011001 L
b1011001 W
b1011001 c
#1298
b1100100 L
b1100100 W
b1100100 c
#1300
00
09
#1305
0C
1B
1A
b1100100 .
b1100100 <
b1100100 I
b1100100 N
b10 H
10
19
0?
1>
b111 !"
b1111001 }
b1111 |
11
b111 %"
b1111001 #"
b1111 ""
12
#1310
00
09
#1315
0/
0M
10
19
#1320
00
09
#1325
0A
1@
b11 H
10
19
1=
05
#1330
00
09
#1335
1/
1M
10
19
#1340
00
09
#1345
0B
0@
b0 H
10
19
0=
b111 {
b1111001 y
b1111 x
15
#1350
00
09
#1355
1-
1O
10
19
#1360
00
09
#1365
1C
b1 H
10
19
1?
0>
02
01
#1370
00
09
#1375
0-
0O
10
19
#1380
00
09
#1385
10
19
b111 7
b111 ;
b111 K
b111 Q
b111 m
b111 n
b111 t
#1386
b110001 R
b110001 Z
b110001 o
b111000 S
b111000 b
b11100 T
b11100 u
#1387
b1000001 V
b1000001 a
b1000001 \
b1101100 L
b1101100 W
b1101100 c
#1388
b1111001 L
b1111001 W
b1111001 c
#1390
00
09
#1395
0C
1B
1A
b10 H
b1111001 .
b1111001 <
b1111001 I
b1111001 N
10
19
0?
1>
b10000 |
11
b10000 ""
12
#1400
00
09
#1405
0/
0M
10
19
#1410
00
09
#1415
0A
1@
b11 H
10
19
1=
05
#1420
00
09
#1425
1/
1M
10
19
#1430
00
09
#1435
0B
0@
b0 H
10
19
0=
b10000 x
15
