reti_logiche/esami/verilog/2024-06-04/waveform.vcd
$date
	Tue Jun  3 11:34:45 2025
$end
$version
	Icarus Verilog
$end
$timescale
	1s
$end
$scope module CR_to_MS $end
$var wire 8 ! x [7:0] $end
$var wire 1 " sgn_x $end
$var wire 8 # abs_x [7:0] $end
$var parameter 32 $ N $end
$upscope $end
$scope module MS_to_CR $end
$var wire 8 % abs_x [7:0] $end
$var wire 1 & ow $end
$var wire 1 ' sgn_x $end
$var wire 8 ( x [7:0] $end
$var parameter 32 ) N $end
$upscope $end
$scope module comp_nat $end
$var wire 2 * a [1:0] $end
$var wire 2 + b [1:0] $end
$var wire 1 , min $end
$var wire 1 - eq $end
$var parameter 32 . N $end
$upscope $end
$scope module diff $end
$var wire 1 / b_in $end
$var wire 8 0 x [7:0] $end
$var wire 8 1 y [7:0] $end
$var wire 1 2 ow $end
$var wire 8 3 d [7:0] $end
$var wire 1 4 b_out $end
$var parameter 32 5 N $end
$upscope $end
$scope module imul $end
$var wire 1 6 sgn_m $end
$var wire 8 7 x [7:0] $end
$var wire 8 8 y [7:0] $end
$var wire 1 9 sgn_y $end
$var wire 1 : sgn_x $end
$var wire 16 ; m [15:0] $end
$var wire 8 < abs_y [7:0] $end
$var wire 8 = abs_x [7:0] $end
$var wire 16 > abs_m [15:0] $end
$var parameter 32 ? M $end
$var parameter 32 @ N $end
$upscope $end
$scope module testbench $end
$var wire 1 A z $end
$var wire 1 B soc $end
$var wire 8 C m [7:0] $end
$var wire 1 D clock $end
$var reg 1 E eoc $end
$var reg 1 F error $end
$var reg 1 G reset_ $end
$var reg 8 H x [7:0] $end
$scope function get_testcase $end
$upscope $end
$scope module clk $end
$var wire 1 D clock $end
$var parameter 32 I HALF_PERIOD $end
$var reg 1 J CLOCK $end
$upscope $end
$scope module dut $end
$var wire 1 D clock $end
$var wire 1 E eoc $end
$var wire 1 G reset_ $end
$var wire 8 K x [7:0] $end
$var wire 1 A z $end
$var wire 1 B soc $end
$var wire 8 L m [7:0] $end
$var wire 1 M c0 $end
$var wire 1 N b1 $end
$var wire 1 O b0 $end
$scope module pc $end
$var wire 1 D clock $end
$var wire 1 G reset_ $end
$var wire 1 M c0 $end
$var wire 1 N b1 $end
$var wire 1 O b0 $end
$var parameter 32 P S0 $end
$var parameter 32 Q S1 $end
$var parameter 32 R S2 $end
$var reg 2 S STAR [1:0] $end
$upscope $end
$scope module po $end
$var wire 1 O b0 $end
$var wire 1 N b1 $end
$var wire 1 M c0 $end
$var wire 1 D clock $end
$var wire 1 E eoc $end
$var wire 8 T m [7:0] $end
$var wire 1 G reset_ $end
$var wire 1 B soc $end
$var wire 8 U x [7:0] $end
$var wire 1 A z $end
$var wire 8 V media [7:0] $end
$var reg 8 W M [7:0] $end
$var reg 1 X SOC $end
$var reg 8 Y X [7:0] $end
$var reg 1 Z Z $end
$scope module me $end
$var wire 8 [ m [7:0] $end
$var wire 8 \ x_next [7:0] $end
$var wire 8 ] primo_termine [7:0] $end
$var wire 10 ^ mx3 [9:0] $end
$var wire 8 _ m_next [7:0] $end
$scope module a $end
$var wire 1 ` c_in $end
$var wire 1 a ow $end
$var wire 8 b x [7:0] $end
$var wire 8 c y [7:0] $end
$var wire 8 d s [7:0] $end
$var wire 1 e c_out $end
$var parameter 32 f N $end
$upscope $end
$scope module m1 $end
$var wire 8 g c [7:0] $end
$var wire 8 h x [7:0] $end
$var wire 2 i y [1:0] $end
$var wire 10 j m [9:0] $end
$var parameter 32 k M $end
$var parameter 32 l N $end
$upscope $end
$upscope $end
$upscope $end
$upscope $end
$scope fork f $end
$scope begin consumer $end
$var reg 9 m i [8:0] $end
$var reg 8 n m_c [7:0] $end
$var reg 8 o x_c [7:0] $end
$upscope $end
$scope begin producer $end
$var reg 9 p i [8:0] $end
$var reg 8 q m_p [7:0] $end
$var reg 8 r x_p [7:0] $end
$upscope $end
$upscope $end
$upscope $end
$enddefinitions $end
$comment Show the parameter values. $end
$dumpall
b1000 l
b10 k
b1000 f
b10 R
b1 Q
b0 P
b101 I
b1000 @
b1000 ?
b1000 5
b10 .
b1000 )
b1000 $
$end
#0
$dumpvars
bx r
bx q
bx p
bx o
bx n
bx m
bx j
b11 i
b0 h
b0 g
xe
bx d
b0xxxxxx c
bx b
xa
0`
bx _
bx ^
bx ]
bx \
b0 [
0Z
bx Y
0X
b0 W
bx V
bx U
b0 T
b0 S
0O
0N
0M
b0 L
bx K
0J
bx H
0G
0F
1E
0D
b0 C
0B
0A
bx >
bx =
bx <
bx ;
z:
z9
bz 8
bz 7
x6
x4
bx 3
x2
bz 1
bz 0
z/
x-
x,
bz +
bz *
bx (
z'
x&
bz %
bx #
z"
bz !
$end
#1
b0 ]
b0 b
b0 ^
b0 j
#5
1B
1X
1D
1J
b1000 r
b10 q
b1 p
b1000 o
b10 n
b1 m
1G
#10
0D
0J
#15
1D
1J
#20
0D
0J
1M
0E
#25
1O
b1 S
1D
1J
#30
0D
0J
#35
0B
0X
1D
1J
#40
0D
0J
#45
1D
1J
#50
0D
0J
#55
b10 c
b1000 Y
b1000 \
1D
1J
b1000 H
b1000 K
b1000 U
#56
b10 V
b10 _
b10 d
0e
0M
b110 r
b10 p
1E
#57
0a
#60
0D
0J
#65
0O
1N
b10 S
1D
1J
#70
0D
0J
#75
0N
b0 S
b10 C
b10 L
b10 T
b10 W
b10 [
b10 h
1A
1Z
1D
1J
#76
b1 ]
b1 b
b110 ^
b110 j
#77
b11 V
b11 _
b11 d
#80
0D
0J
#85
1B
1X
0A
0Z
1D
1J
#90
0D
0J
b110 o
b10 m
#95
1D
1J
#100
0D
0J
1M
0E
bx H
bx K
bx U
#105
1O
b1 S
1D
1J
#110
0D
0J
#115
b0xxxxxx c
bx Y
bx \
0B
0X
1D
1J
#116
bx V
bx _
bx d
xe
#117
xa
#120
0D
0J
#125
1D
1J
#130
0D
0J
#135
b1 c
b110 Y
b110 \
1D
1J
b110 H
b110 K
b110 U
#136
b10 V
b10 _
b10 d
0e
0M
b1110 r
b100 q
b11 p
1E
#137
0a
#140
0D
0J
#145
0O
1N
b10 S
1D
1J
#150
0D
0J
#155
0N
b0 S
1A
1Z
1D
1J
#160
0D
0J
#165
1B
1X
0A
0Z
1D
1J
#170
0D
0J
b1110 o
b100 n
b11 m
#175
1D
1J
#180
0D
0J
1M
0E
bx H
bx K
bx U
#185
1O
b1 S
1D
1J
#190
0D
0J
#195
b0xxxxxx c
bx Y
bx \
0B
0X
1D
1J
#196
bx V
bx _
bx d
xe
#197
xa
#200
0D
0J
#205
1D
1J
#210
0D
0J
#215
b11 c
b1110 Y
b1110 \
1D
1J
b1110 H
b1110 K
b1110 U
#216
b100 V
b100 _
b100 d
0e
0M
b1101 r
b110 q
b100 p
1E
#217
0a
#220
0D
0J
#225
0O
1N
b10 S
1D
1J
#230
0D
0J
#235
0N
b0 S
b100 C
b100 L
b100 T
b100 W
b100 [
b100 h
1A
1Z
1D
1J
#236
b11 ]
b11 b
b1100 ^
b1100 j
#237
b110 V
b110 _
b110 d
#240
0D
0J
#245
1B
1X
0A
0Z
1D
1J
#250
0D
0J
b1101 o
b110 n
b100 m
#255
1D
1J
#260
0D
0J
1M
0E
bx H
bx K
bx U
#265
1O
b1 S
1D
1J
#270
0D
0J
#275
b0xxxxxx c
bx Y
bx \
0B
0X
1D
1J
#276
bx V
bx _
bx d
xe
#277
xa
#280
0D
0J
#285
1D
1J
#290
0D
0J
#295
b11 c
b1101 Y
b1101 \
1D
1J
b1101 H
b1101 K
b1101 U
#296
b110 V
b110 _
b110 d
0e
0M
b11001 r
b1010 q
b101 p
1E
#297
0a
#300
0D
0J
#305
0O
1N
b10 S
1D
1J
#310
0D
0J
#315
0N
b0 S
b110 C
b110 L
b110 T
b110 W
b110 [
b110 h
1A
1Z
1D
1J
#316
b100 ]
b100 b
b10010 ^
b10010 j
#317
b111 V
b111 _
b111 d
#320
0D
0J
#325
1B
1X
0A
0Z
1D
1J
#330
0D
0J
b11001 o
b1010 n
b101 m
#335
1D
1J
#340
0D
0J
1M
0E
bx H
bx K
bx U
#345
1O
b1 S
1D
1J
#350
0D
0J
#355
b0xxxxxx c
bx Y
bx \
0B
0X
1D
1J
#356
bx V
bx _
bx d
xe
#357
xa
#360
0D
0J
#365
1D
1J
#370
0D
0J
#375
b110 c
b11001 Y
b11001 \
1D
1J
b11001 H
b11001 K
b11001 U
#376
b1010 V
b1010 _
b1010 d
0e
0M
b100100 r
b10000 q
b110 p
1E
#377
0a
#380
0D
0J
#385
0O
1N
b10 S
1D
1J
#390
0D
0J
#395
0N
b0 S
b1010 C
b1010 L
b1010 T
b1010 W
b1010 [
b1010 h
1A
1Z
1D
1J
#396
b111 ]
b111 b
b11110 ^
b11110 j
#397
b1101 V
b1101 _
b1101 d
#400
0D
0J
#405
1B
1X
0A
0Z
1D
1J
#410
0D
0J
b100100 o
b10000 n
b110 m
#415
1D
1J
#420
0D
0J
1M
0E
bx H
bx K
bx U
#425
1O
b1 S
1D
1J
#430
0D
0J
#435
b0xxxxxx c
bx Y
bx \
0B
0X
1D
1J
#436
bx V
bx _
bx d
xe
#437
xa
#440
0D
0J
#445
1D
1J
#450
0D
0J
#455
b1001 c
b100100 Y
b100100 \
1D
1J
b100100 H
b100100 K
b100100 U
#456
b10000 V
b10000 _
b10000 d
0e
0M
b110010 r
b11000 q
b111 p
1E
#457
0a
#460
0D
0J
#465
0O
1N
b10 S
1D
1J
#470
0D
0J
#475
0N
b0 S
b10000 C
b10000 L
b10000 T
b10000 W
b10000 [
b10000 h
1A
1Z
1D
1J
#476
b1100 ]
b1100 b
b110000 ^
b110000 j
#477
b10101 V
b10101 _
b10101 d
#480
0D
0J
#485
1B
1X
0A
0Z
1D
1J
#490
0D
0J
b110010 o
b11000 n
b111 m
#495
1D
1J
#500
0D
0J
1M
0E
bx H
bx K
bx U
#505
1O
b1 S
1D
1J
#510
0D
0J
#515
b0xxxxxx c
bx Y
bx \
0B
0X
1D
1J
#516
bx V
bx _
bx d
xe
#517
xa
#520
0D
0J
#525
1D
1J
#530
0D
0J
#535
b1100 c
b110010 Y
b110010 \
1D
1J
b110010 H
b110010 K
b110010 U
#536
b11000 V
b11000 _
b11000 d
0e
0M
b1000001 r
b100010 q
b1000 p
1E
#537
0a
#540
0D
0J
#545
0O
1N
b10 S
1D
1J
#550
0D
0J
#555
0N
b0 S
b11000 C
b11000 L
b11000 T
b11000 W
b11000 [
b11000 h
1A
1Z
1D
1J
#556
b10010 ]
b10010 b
b1001000 ^
b1001000 j
#557
b11110 V
b11110 _
b11110 d
#560
0D
0J
#565
1B
1X
0A
0Z
1D
1J
#570
0D
0J
b1000001 o
b100010 n
b1000 m
#575
1D
1J
#580
0D
0J
1M
0E
bx H
bx K
bx U
#585
1O
b1 S
1D
1J
#590
0D
0J
#595
b0xxxxxx c
bx Y
bx \
0B
0X
1D
1J
#596
bx V
bx _
bx d
xe
#597
xa
#600
0D
0J
#605
1D
1J
#610
0D
0J
#615
b10000 c
b1000001 Y
b1000001 \
1D
1J
b1000001 H
b1000001 K
b1000001 U
#616
b100010 V
b100010 _
b100010 d
0e
0M
b1000011 r
b101001 q
b1001 p
1E
#617
0a
#620
0D
0J
#625
0O
1N
b10 S
1D
1J
#630
0D
0J
#635
0N
b0 S
b100010 C
b100010 L
b100010 T
b100010 W
b100010 [
b100010 h
1A
1Z
1D
1J
#636
b11001 ]
b11001 b
b1100110 ^
b1100110 j
#637
b101001 V
b101001 _
b101001 d
#640
0D
0J
#645
1B
1X
0A
0Z
1D
1J
#650
0D
0J
b1000011 o
b101001 n
b1001 m
#655
1D
1J
#660
0D
0J
1M
0E
bx H
bx K
bx U
#665
1O
b1 S
1D
1J
#670
0D
0J
#675
b0xxxxxx c
bx Y
bx \
0B
0X
1D
1J
#676
bx V
bx _
bx d
xe
#677
xa
#680
0D
0J
#685
1D
1J
#690
0D
0J
#695
b10000 c
b1000011 Y
b1000011 \
1D
1J
b1000011 H
b1000011 K
b1000011 U
#696
b101001 V
b101001 _
b101001 d
0e
0M
b1001000 r
b110000 q
b1010 p
1E
#697
0a
#700
0D
0J
#705
0O
1N
b10 S
1D
1J
#710
0D
0J
#715
0N
b0 S
b101001 C
b101001 L
b101001 T
b101001 W
b101001 [
b101001 h
1A
1Z
1D
1J
#716
b11110 ]
b11110 b
b1111011 ^
b1111011 j
#717
b101110 V
b101110 _
b101110 d
#720
0D
0J
#725
1B
1X
0A
0Z
1D
1J
#730
0D
0J
b1001000 o
b110000 n
b1010 m
#735
1D
1J
#740
0D
0J
1M
0E
bx H
bx K
bx U
#745
1O
b1 S
1D
1J
#750
0D
0J
#755
b0xxxxxx c
bx Y
bx \
0B
0X
1D
1J
#756
bx V
bx _
bx d
xe
#757
xa
#760
0D
0J
#765
1D
1J
#770
0D
0J
#775
b10010 c
b1001000 Y
b1001000 \
1D
1J
b1001000 H
b1001000 K
b1001000 U
#776
b110000 V
b110000 _
b110000 d
0e
0M
b1010110 r
b111001 q
b1011 p
1E
#777
0a
#780
0D
0J
#785
0O
1N
b10 S
1D
1J
#790
0D
0J
#795
0N
b0 S
b110000 C
b110000 L
b110000 T
b110000 W
b110000 [
b110000 h
1A
1Z
1D
1J
#796
b100100 ]
b100100 b
b10010000 ^
b10010000 j
#797
b110110 V
b110110 _
b110110 d
#800
0D
0J
#805
1B
1X
0A
0Z
1D
1J
#810
0D
0J
b1010110 o
b111001 n
b1011 m
#815
1D
1J
#820
0D
0J
1M
0E
bx H
bx K
bx U
#825
1O
b1 S
1D
1J
#830
0D
0J
#835
b0xxxxxx c
bx Y
bx \
0B
0X
1D
1J
#836
bx V
bx _
bx d
xe
#837
xa
#840
0D
0J
#845
1D
1J
#850
0D
0J
#855
b10101 c
b1010110 Y
b1010110 \
1D
1J
b1010110 H
b1010110 K
b1010110 U
#856
b111001 V
b111001 _
b111001 d
0e
0M
b1010101 r
b111111 q
b1100 p
1E
#857
0a
#860
0D
0J
#865
0O
1N
b10 S
1D
1J
#870
0D
0J
#875
0N
b0 S
b111001 C
b111001 L
b111001 T
b111001 W
b111001 [
b111001 h
1A
1Z
1D
1J
#876
b101010 ]
b101010 b
b10101011 ^
b10101011 j
#877
b111111 V
b111111 _
b111111 d
#880
0D
0J
#885
1B
1X
0A
0Z
1D
1J
#890
0D
0J
b1010101 o
b111111 n
b1100 m
#895
1D
1J
#900
0D
0J
1M
0E
bx H
bx K
bx U
#905
1O
b1 S
1D
1J
#910
0D
0J
#915
b0xxxxxx c
bx Y
bx \
0B
0X
1D
1J
#916
bx V
bx _
bx d
xe
#917
xa
#920
0D
0J
#925
1D
1J
#930
0D
0J
#935
b10101 c
b1010101 Y
b1010101 \
1D
1J
b1010101 H
b1010101 K
b1010101 U
#936
b111111 V
b111111 _
b111111 d
0e
0M
b1001010 r
b1000001 q
b1101 p
1E
#937
0a
#940
0D
0J
#945
0O
1N
b10 S
1D
1J
#950
0D
0J
#955
0N
b0 S
b111111 C
b111111 L
b111111 T
b111111 W
b111111 [
b111111 h
1A
1Z
1D
1J
#956
b101111 ]
b101111 b
b10111101 ^
b10111101 j
#957
b1000100 V
b1000100 _
b1000100 d
#960
0D
0J
#965
1B
1X
0A
0Z
1D
1J
#970
0D
0J
b1001010 o
b1000001 n
b1101 m
#975
1D
1J
#980
0D
0J
1M
0E
bx H
bx K
bx U
#985
1O
b1 S
1D
1J
#990
0D
0J
#995
b0xxxxxx c
bx Y
bx \
0B
0X
1D
1J
#996
bx V
bx _
bx d
xe
#997
xa
#1000
0D
0J
#1005
1D
1J
#1010
0D
0J
#1015
b10010 c
b1001010 Y
b1001010 \
1D
1J
b1001010 H
b1001010 K
b1001010 U
#1016
b1000001 V
b1000001 _
b1000001 d
0e
0M
b1001101 r
b1000011 q
b1110 p
1E
#1017
0a
#1020
0D
0J
#1025
0O
1N
b10 S
1D
1J
#1030
0D
0J
#1035
0N
b0 S
b1000001 C
b1000001 L
b1000001 T
b1000001 W
b1000001 [
b1000001 h
1A
1Z
1D
1J
#1036
b110000 ]
b110000 b
b11000011 ^
b11000011 j
#1037
b1000010 V
b1000010 _
b1000010 d
#1040
0D
0J
#1045
1B
1X
0A
0Z
1D
1J
#1050
0D
0J
b1001101 o
b1000011 n
b1110 m
#1055
1D
1J
#1060
0D
0J
1M
0E
bx H
bx K
bx U
#1065
1O
b1 S
1D
1J
#1070
0D
0J
#1075
b0xxxxxx c
bx Y
bx \
0B
0X
1D
1J
#1076
bx V
bx _
bx d
xe
#1077
xa
#1080
0D
0J
#1085
1D
1J
#1090
0D
0J
#1095
b10011 c
b1001101 Y
b1001101 \
1D
1J
b1001101 H
b1001101 K
b1001101 U
#1096
b1000011 V
b1000011 _
b1000011 d
0e
0M
b1000011 r
b1000010 q
b1111 p
1E
#1097
0a
#1100
0D
0J
#1105
0O
1N
b10 S
1D
1J
#1110
0D
0J
#1115
0N
b0 S
b1000011 C
b1000011 L
b1000011 T
b1000011 W
b1000011 [
b1000011 h
1A
1Z
1D
1J
#1116
b110010 ]
b110010 b
b11001001 ^
b11001001 j
#1117
b1000101 V
b1000101 _
b1000101 d
#1120
0D
0J
#1125
1B
1X
0A
0Z
1D
1J
#1130
0D
0J
b1000011 o
b1000010 n
b1111 m
#1135
1D
1J
#1140
0D
0J
1M
0E
bx H
bx K
bx U
#1145
1O
b1 S
1D
1J
#1150
0D
0J
#1155
b0xxxxxx c
bx Y
bx \
0B
0X
1D
1J
#1156
bx V
bx _
bx d
xe
#1157
xa
#1160
0D
0J
#1165
1D
1J
#1170
0D
0J
#1175
b10000 c
b1000011 Y
b1000011 \
1D
1J
b1000011 H
b1000011 K
b1000011 U
#1176
b1000010 V
b1000010 _
b1000010 d
0e
0M
b1000111 r
b10000 p
1E
#1177
0a
#1180
0D
0J
#1185
0O
1N
b10 S
1D
1J
#1190
0D
0J
#1195
0N
b0 S
b1000010 C
b1000010 L
b1000010 T
b1000010 W
b1000010 [
b1000010 h
1A
1Z
1D
1J
#1196
b110001 ]
b110001 b
b11000110 ^
b11000110 j
#1197
b1000001 V
b1000001 _
b1000001 d
#1200
0D
0J
#1205
1B
1X
0A
0Z
1D
1J
#1210
0D
0J
b1000111 o
b10000 m
#1215
1D
1J
#1220
0D
0J
1M
0E
bx H
bx K
bx U
#1225
1O
b1 S
1D
1J
#1230
0D
0J
#1235
b0xxxxxx c
bx Y
bx \
0B
0X
1D
1J
#1236
bx V
bx _
bx d
xe
#1237
xa
#1240
0D
0J
#1245
1D
1J
#1250
0D
0J
#1255
b10001 c
b1000111 Y
b1000111 \
1D
1J
b1000111 H
b1000111 K
b1000111 U
#1256
b1000010 V
b1000010 _
b1000010 d
0e
0M
b111100 r
b1000000 q
b10001 p
1E
#1257
0a
#1260
0D
0J
#1265
0O
1N
b10 S
1D
1J
#1270
0D
0J
#1275
0N
b0 S
1A
1Z
1D
1J
#1280
0D
0J
#1285
1B
1X
0A
0Z
1D
1J
#1290
0D
0J
b111100 o
b1000000 n
b10001 m
#1295
1D
1J
#1300
0D
0J
1M
0E
bx H
bx K
bx U
#1305
1O
b1 S
1D
1J
#1310
0D
0J
#1315
b0xxxxxx c
bx Y
bx \
0B
0X
1D
1J
#1316
bx V
bx _
bx d
xe
#1317
xa
#1320
0D
0J
#1325
1D
1J
#1330
0D
0J
#1335
b1111 c
b111100 Y
b111100 \
1D
1J
b111100 H
b111100 K
b111100 U
#1336
b1000000 V
b1000000 _
b1000000 d
0e
0M
b111111 q
b10010 p
1E
#1337
0a
#1340
0D
0J
#1345
0O
1N
b10 S
1D
1J
#1350
0D
0J
#1355
0N
b0 S
b1000000 C
b1000000 L
b1000000 T
b1000000 W
b1000000 [
b1000000 h
1A
1Z
1D
1J
#1356
b110000 ]
b110000 b
b11000000 ^
b11000000 j
#1357
b111111 V
b111111 _
b111111 d
#1360
0D
0J
#1365
1B
1X
0A
0Z
1D
1J
#1370
0D
0J
b111111 n
b10010 m
#1375
1D
1J
#1380
0D
0J
1M
0E
bx H
bx K
bx U
#1385
1O
b1 S
1D
1J
#1390
0D
0J
#1395
b0xxxxxx c
bx Y
bx \
0B
0X
1D
1J
#1396
bx V
bx _
bx d
xe
#1397
xa
#1400
0D
0J
#1405
1D
1J
#1410
0D
0J
#1415
b1111 c
b111100 Y
b111100 \
1D
1J
b111100 H
b111100 K
b111100 U
#1416
b111111 V
b111111 _
b111111 d
0e
0M
b111011 r
b111101 q
b10011 p
1E
#1417
0a
#1420
0D
0J
#1425
0O
1N
b10 S
1D
1J
#1430
0D
0J
#1435
0N
b0 S
b111111 C
b111111 L
b111111 T
b111111 W
b111111 [
b111111 h
1A
1Z
1D
1J
#1436
b101111 ]
b101111 b
b10111101 ^
b10111101 j
#1437
b111110 V
b111110 _
b111110 d
#1440
0D
0J
#1445
1B
1X
0A
0Z
1D
1J
#1450
0D
0J
b111011 o
b111101 n
b10011 m
#1455
1D
1J
#1460
0D
0J
1M
0E
bx H
bx K
bx U
#1465
1O
b1 S
1D
1J
#1470
0D
0J
#1475
b0xxxxxx c
bx Y
bx \
0B
0X
1D
1J
#1476
bx V
bx _
bx d
xe
#1477
xa
#1480
0D
0J
#1485
1D
1J
#1490
0D
0J
#1495
b1110 c
b111011 Y
b111011 \
1D
1J
b111011 H
b111011 K
b111011 U
#1496
b111101 V
b111101 _
b111101 d
0e
0M
b111010 r
b111011 q
b10100 p
1E
#1497
0a
#1500
0D
0J
#1505
0O
1N
b10 S
1D
1J
#1510
0D
0J
#1515
0N
b0 S
b111101 C
b111101 L
b111101 T
b111101 W
b111101 [
b111101 h
1A
1Z
1D
1J
#1516
b101101 ]
b101101 b
b10110111 ^
b10110111 j
#1517
b111011 V
b111011 _
b111011 d
#1520
0D
0J
#1525
1B
1X
0A
0Z
1D
1J
#1530
0D
0J
b111010 o
b111011 n
b10100 m
#1535
1D
1J
#1540
0D
0J
1M
0E
bx H
bx K
bx U
#1545
1O
b1 S
1D
1J
#1550
0D
0J
#1555
b0xxxxxx c
bx Y
bx \
0B
0X
1D
1J
#1556
bx V
bx _
bx d
xe
#1557
xa
#1560
0D
0J
#1565
1D
1J
#1570
0D
0J
#1575
b1110 c
b111010 Y
b111010 \
1D
1J
b111010 H
b111010 K
b111010 U
#1576
b111011 V
b111011 _
b111011 d
0e
0M
b111000 r
b111010 q
b10101 p
1E
#1577
0a
#1580
0D
0J
#1585
0O
1N
b10 S
1D
1J
#1590
0D
0J
#1595
0N
b0 S
b111011 C
b111011 L
b111011 T
b111011 W
b111011 [
b111011 h
1A
1Z
1D
1J
#1596
b101100 ]
b101100 b
b10110001 ^
b10110001 j
#1597
b111010 V
b111010 _
b111010 d
#1600
0D
0J
#1605
1B
1X
0A
0Z
1D
1J
#1610
0D
0J
b111000 o
b111010 n
b10101 m
#1615
1D
1J
#1620
0D
0J
1M
0E
bx H
bx K
bx U
#1625
1O
b1 S
1D
1J
#1630
0D
0J
#1635
b0xxxxxx c
bx Y
bx \
0B
0X
1D
1J
#1636
bx V
bx _
bx d
xe
#1637
xa
#1640
0D
0J
#1645
1D
1J
#1650
0D
0J
#1655
b1110 c
b111000 Y
b111000 \
1D
1J
b111000 H
b111000 K
b111000 U
#1656
b111010 V
b111010 _
b111010 d
0e
0M
b111101 r
b10110 p
1E
#1657
0a
#1660
0D
0J
#1665
0O
1N
b10 S
1D
1J
#1670
0D
0J
#1675
0N
b0 S
b111010 C
b111010 L
b111010 T
b111010 W
b111010 [
b111010 h
1A
1Z
1D
1J
#1676
b101011 ]
b101011 b
b10101110 ^
b10101110 j
#1677
b111001 V
b111001 _
b111001 d
#1680
0D
0J
#1685
1B
1X
0A
0Z
1D
1J
#1690
0D
0J
b111101 o
b10110 m
#1695
1D
1J
#1700
0D
0J
1M
0E
bx H
bx K
bx U
#1705
1O
b1 S
1D
1J
#1710
0D
0J
#1715
b0xxxxxx c
bx Y
bx \
0B
0X
1D
1J
#1716
bx V
bx _
bx d
xe
#1717
xa
#1720
0D
0J
#1725
1D
1J
#1730
0D
0J
#1735
b1111 c
b111101 Y
b111101 \
1D
1J
b111101 H
b111101 K
b111101 U
#1736
b111010 V
b111010 _
b111010 d
0e
0M
b111011 r
b111001 q
b10111 p
1E
#1737
0a
#1740
0D
0J
#1745
0O
1N
b10 S
1D
1J
#1750
0D
0J
#1755
0N
b0 S
1A
1Z
1D
1J
#1760
0D
0J
#1765
1B
1X
0A
0Z
1D
1J
#1770
0D
0J
b111011 o
b111001 n
b10111 m
#1775
1D
1J
#1780
0D
0J
1M
0E
bx H
bx K
bx U
#1785
1O
b1 S
1D
1J
#1790
0D
0J
#1795
b0xxxxxx c
bx Y
bx \
0B
0X
1D
1J
#1796
bx V
bx _
bx d
xe
#1797
xa
#1800
0D
0J
#1805
1D
1J
#1810
0D
0J
#1815
b1110 c
b111011 Y
b111011 \
1D
1J
b111011 H
b111011 K
b111011 U
#1816
b111001 V
b111001 _
b111001 d
0e
0M
b110001 r
b110110 q
b11000 p
1E
#1817
0a
#1820
0D
0J
#1825
0O
1N
b10 S
1D
1J
#1830
0D
0J
#1835
0N
b0 S
b111001 C
b111001 L
b111001 T
b111001 W
b111001 [
b111001 h
1A
1Z
1D
1J
#1836
b101010 ]
b101010 b
b10101011 ^
b10101011 j
#1837
b111000 V
b111000 _
b111000 d
#1840
0D
0J
#1845
1B
1X
0A
0Z
1D
1J
#1850
0D
0J
b110001 o
b110110 n
b11000 m
#1855
1D
1J
#1860
0D
0J
1M
0E
bx H
bx K
bx U
#1865
1O
b1 S
1D
1J
#1870
0D
0J
#1875
b0xxxxxx c
bx Y
bx \
0B
0X
1D
1J
#1876
bx V
bx _
bx d
xe
#1877
xa
#1880
0D
0J
#1885
1D
1J
#1890
0D
0J
#1895
b1100 c
b110001 Y
b110001 \
1D
1J
b110001 H
b110001 K
b110001 U
#1896
b110110 V
b110110 _
b110110 d
0e
0M
b111010 r
b11001 p
1E
#1897
0a
#1900
0D
0J
#1905
0O
1N
b10 S
1D
1J
#1910
0D
0J
#1915
0N
b0 S
b110110 C
b110110 L
b110110 T
b110110 W
b110110 [
b110110 h
1A
1Z
1D
1J
#1916
b101000 ]
b101000 b
b10100010 ^
b10100010 j
#1917
b110100 V
b110100 _
b110100 d
#1920
0D
0J
#1925
1B
1X
0A
0Z
1D
1J
#1930
0D
0J
b111010 o
b11001 m
#1935
1D
1J
#1940
0D
0J
1M
0E
bx H
bx K
bx U
#1945
1O
b1 S
1D
1J
#1950
0D
0J
#1955
b0xxxxxx c
bx Y
bx \
0B
0X
1D
1J
#1956
bx V
bx _
bx d
xe
#1957
xa
#1960
0D
0J
#1965
1D
1J
#1970
0D
0J
#1975
b1110 c
b111010 Y
b111010 \
1D
1J
b111010 H
b111010 K
b111010 U
#1976
b110110 V
b110110 _
b110110 d
0e
0M
b111011 r
b11010 p
1E
#1977
0a
#1980
0D
0J
#1985
0O
1N
b10 S
1D
1J
#1990
0D
0J
#1995
0N
b0 S
1A
1Z
1D
1J
#2000
0D
0J
#2005
1B
1X
0A
0Z
1D
1J
#2010
0D
0J
b111011 o
b11010 m
#2015
1D
1J
#2020
0D
0J
1M
0E
bx H
bx K
bx U
#2025
1O
b1 S
1D
1J
#2030
0D
0J
#2035
b0xxxxxx c
bx Y
bx \
0B
0X
1D
1J
#2036
bx V
bx _
bx d
xe
#2037
xa
#2040
0D
0J
#2045
1D
1J
#2050
0D
0J
#2055
b1110 c
b111011 Y
b111011 \
1D
1J
b111011 H
b111011 K
b111011 U
#2056
b110110 V
b110110 _
b110110 d
0e
0M
b110110 r
b110101 q
b11011 p
1E
#2057
0a
#2060
0D
0J
#2065
0O
1N
b10 S
1D
1J
#2070
0D
0J
#2075
0N
b0 S
1A
1Z
1D
1J
#2080
0D
0J
#2085
1B
1X
0A
0Z
1D
1J
#2090
0D
0J
b110110 o
b110101 n
b11011 m
#2095
1D
1J
#2100
0D
0J
1M
0E
bx H
bx K
bx U
#2105
1O
b1 S
1D
1J
#2110
0D
0J
#2115
b0xxxxxx c
bx Y
bx \
0B
0X
1D
1J
#2116
bx V
bx _
bx d
xe
#2117
xa
#2120
0D
0J
#2125
1D
1J
#2130
0D
0J
#2135
b1101 c
b110110 Y
b110110 \
1D
1J
b110110 H
b110110 K
b110110 U
#2136
b110101 V
b110101 _
b110101 d
0e
0M
b1000001 r
b110111 q
b11100 p
1E
#2137
0a
#2140
0D
0J
#2145
0O
1N
b10 S
1D
1J
#2150
0D
0J
#2155
0N
b0 S
b110101 C
b110101 L
b110101 T
b110101 W
b110101 [
b110101 h
1A
1Z
1D
1J
#2156
b100111 ]
b100111 b
b10011111 ^
b10011111 j
#2157
b110100 V
b110100 _
b110100 d
#2160
0D
0J
#2165
1B
1X
0A
0Z
1D
1J
#2170
0D
0J
b1000001 o
b110111 n
b11100 m
#2175
1D
1J
#2180
0D
0J
1M
0E
bx H
bx K
bx U
#2185
1O
b1 S
1D
1J
#2190
0D
0J
#2195
b0xxxxxx c
bx Y
bx \
0B
0X
1D
1J
#2196
bx V
bx _
bx d
xe
#2197
xa
#2200
0D
0J
#2205
1D
1J
#2210
0D
0J
#2215
b10000 c
b1000001 Y
b1000001 \
1D
1J
b1000001 H
b1000001 K
b1000001 U
#2216
b110111 V
b110111 _
b110111 d
0e
0M
b1000111 r
b111010 q
b11101 p
1E
#2217
0a
#2220
0D
0J
#2225
0O
1N
b10 S
1D
1J
#2230
0D
0J
#2235
0N
b0 S
b110111 C
b110111 L
b110111 T
b110111 W
b110111 [
b110111 h
1A
1Z
1D
1J
#2236
b101001 ]
b101001 b
b10100101 ^
b10100101 j
#2237
b111001 V
b111001 _
b111001 d
#2240
0D
0J
#2245
1B
1X
0A
0Z
1D
1J
